Q13_[SC1b] Fakultaet,Q19_[HVS1]->Similarity,Q20_[HVS2]->Similarity,Q21_[HVS3]->Similarity,Q22_[HVS4]->Similarity,Q23_[HVS5]->Similarity,Q24_[HVS6]->Similarity,Q25_[HVS7]->Similarity,Q26_[HVS8]->Similarity,Q27_[HVS9]->Similarity,Q28_[HVS10]->Similarity,Q29_[HVS11]->Similarity,Q30_[HVS12]->Similarity,Q31_[HVS13]->Similarity,Q32_[HVS14]->Similarity,Q33_[HVS15]->Similarity,Q34_[HVS16]->Similarity,Q35_[HVS17]->Similarity,Q36_[HVS18]->Similarity,Q37_[HVS19]->Similarity,Q38_[HVS20]->Similarity,Q39_[HVS21]->Similarity
Management und Technologie,4,5,2,2,1,4,5,2,1,2,2,1,4,3,4,2,3,1,2,3,2
Management und Technologie,3,3,3,5,3,4,3,3,4,4,3,3,2,3,3,2,2,2,2,2,4
Management und Technologie,5,3,1,2,3,5,4,5,3,2,3,3,2,3,3,2,4,2,1,5,2
Kulturwissenschaften,3,4,1,3,3,3,5,2,4,2,3,3,3,4,4,3,3,1,1,4,2
Bildung,1,3,1,2,1,1,3,2,1,3,1,1,1,1,2,3,1,1,1,5,2
Bildung,3,3,1,1,1,2,5,1,1,2,2,1,1,2,5,1,5,1,2,2,2
Nachhaltigkeit,2,4,3,2,3,3,4,2,2,4,1,2,2,1,3,3,4,1,2,4,4
Kulturwissenschaften,4,3,2,2,4,4,4,3,2,2,3,4,1,3,3,3,2,2,4,4,3
Staatswissenschaften,2,5,1,6,2,1,6,1,5,1,1,2,5,1,1,4,4,1,3,1,1
Bildung,2,4,1,3,2,2,-1,1,2,3,1,1,3,3,2,3,6,2,1,5,3
Bildung,2,2,1,2,2,1,5,1,2,1,2,1,2,1,1,1,3,1,2,2,2
Management und Technologie,2,3,1,2,3,2,3,1,4,3,2,2,1,2,1,2,2,1,1,2,3
Staatswissenschaften,1,2,1,1,1,2,5,1,5,3,1,1,1,1,2,3,2,3,1,5,3
Management und Technologie,1,3,2,3,1,3,3,1,5,2,2,3,3,3,4,2,3,3,2,1,2
Bildung,3,5,1,3,3,1,4,1,4,1,1,1,3,2,2,4,4,1,1,3,1
Management und Technologie,3,2,2,2,2,2,3,1,2,3,2,2,1,2,2,1,2,1,1,1,3
Kulturwissenschaften,1,3,2,2,3,1,6,1,3,1,1,3,3,1,2,4,3,2,3,6,1
Nachhaltigkeit,3,3,1,2,1,2,4,2,2,3,2,2,2,3,2,3,3,2,1,4,2
Management und Technologie,2,4,2,3,1,2,3,2,2,2,2,2,2,1,2,2,2,1,3,3,2
Nachhaltigkeit,2,6,1,5,2,3,6,1,2,4,2,1,6,6,3,1,3,1,1,6,2
Staatswissenschaften,2,6,1,3,4,2,5,3,5,1,3,1,3,4,4,3,5,1,1,4,3
Staatswissenschaften,2,3,1,4,5,2,3,1,4,3,1,2,2,2,2,5,2,2,3,2,2
Staatswissenschaften,2,1,1,1,1,3,3,1,1,2,1,2,1,1,3,2,2,1,1,1,1
Bildung,3,5,2,4,3,2,4,2,3,3,3,2,5,4,5,2,5,3,4,4,3
Bildung,1,3,1,1,3,2,-1,2,5,2,3,2,2,2,2,5,3,1,4,6,1
Kulturwissenschaften,5,5,5,4,4,5,4,6,5,5,6,5,5,5,5,3,4,5,5,4,4
Management und Technologie,3,2,1,2,2,1,2,2,6,2,2,1,2,3,3,3,3,2,1,5,2
Nachhaltigkeit,3,4,1,4,3,2,3,3,4,1,2,2,4,3,2,3,4,2,1,2,1
Bildung,3,5,1,6,1,1,1,1,3,3,1,1,1,1,-1,1,4,2,1,4,1
Management und Technologie,3,3,1,2,1,2,5,1,4,1,1,1,3,2,3,2,2,1,2,3,2
Bildung,4,4,2,5,3,4,4,2,2,3,2,2,3,4,4,2,4,1,2,2,3
Nachhaltigkeit,5,-1,1,3,5,4,5,2,2,2,2,2,6,2,3,1,2,2,1,2,2
Nachhaltigkeit,2,6,1,2,2,3,3,2,2,2,3,1,5,3,5,2,3,1,1,4,4
Nachhaltigkeit,3,-1,1,4,5,3,6,2,2,5,3,2,4,5,2,3,6,2,1,6,4
Management und Technologie,4,2,1,2,4,3,5,1,6,2,1,3,2,3,2,5,4,2,2,5,1
Nachhaltigkeit,3,5,1,6,2,4,3,1,1,2,1,1,5,3,2,2,5,1,1,1,1
Nachhaltigkeit,1,6,1,5,4,2,5,1,2,2,1,1,4,3,2,3,5,1,1,3,2
Bildung,2,5,1,4,4,3,4,1,4,2,2,2,3,3,4,4,5,1,1,5,1
Nachhaltigkeit,3,6,1,2,3,3,4,2,2,2,3,2,5,4,5,3,5,2,1,4,2
Nachhaltigkeit,2,5,1,4,3,1,4,1,3,1,2,1,4,1,2,3,4,1,1,4,2
Nachhaltigkeit,3,2,1,1,2,4,5,3,4,4,2,2,1,4,1,2,3,1,2,5,4
Nachhaltigkeit,2,4,1,2,1,4,2,3,2,2,1,2,3,1,2,1,3,1,1,4,3
Nachhaltigkeit,1,4,1,3,4,1,5,3,5,3,1,1,2,3,1,5,4,3,1,1,1
Nachhaltigkeit,2,-1,1,4,2,2,2,2,3,2,3,2,5,3,3,2,3,1,1,5,3
Nachhaltigkeit,2,5,1,3,4,3,3,1,2,3,3,1,3,3,3,2,2,1,1,2,3
Bildung,2,4,1,4,1,6,4,1,4,2,1,4,5,4,6,1,3,1,1,6,4
Nachhaltigkeit,2,6,1,3,2,2,6,1,3,2,1,1,4,1,1,5,5,1,1,3,1
Nachhaltigkeit,2,6,1,3,5,2,6,1,2,2,1,1,5,4,2,3,6,2,1,6,2
Nachhaltigkeit,1,-1,1,5,4,2,-1,1,3,4,1,2,2,6,2,3,4,3,1,6,3
Nachhaltigkeit,2,5,1,2,4,1,6,1,4,2,1,2,1,1,1,5,4,1,1,5,2
Nachhaltigkeit,2,5,1,2,2,3,4,2,1,3,3,1,4,3,2,2,5,1,1,1,2
Nachhaltigkeit,2,4,2,2,1,1,4,1,5,2,2,2,3,2,2,4,4,2,1,6,2
Nachhaltigkeit,2,4,1,2,3,3,4,2,4,2,1,2,2,3,3,3,3,2,1,4,2
Nachhaltigkeit,2,5,1,3,3,2,4,1,5,2,2,2,2,1,2,3,3,1,1,2,2
Bildung,2,3,1,4,2,2,3,1,5,2,2,3,4,2,2,3,3,1,3,6,2
Management und Technologie,2,5,1,2,2,3,4,1,4,4,2,1,1,1,2,3,3,1,1,1,3
Nachhaltigkeit,3,5,2,3,4,3,3,2,3,3,2,3,2,3,3,3,4,2,1,4,3
Management und Technologie,1,4,1,3,1,1,5,1,3,4,2,1,4,4,3,3,3,1,1,1,1
Nachhaltigkeit,3,4,1,3,5,3,5,3,3,3,1,3,1,3,3,3,5,3,1,5,4
Nachhaltigkeit,3,4,1,4,2,3,5,1,3,4,1,2,4,2,5,4,4,1,1,3,3
Nachhaltigkeit,1,5,1,3,3,2,4,2,5,2,1,3,4,3,1,2,4,2,1,3,1
Bildung,5,3,2,2,2,5,2,3,2,3,4,3,3,2,5,1,3,1,3,3,4
Nachhaltigkeit,2,-1,1,6,5,2,6,1,3,2,1,2,5,4,2,2,5,3,1,4,3
Nachhaltigkeit,4,3,6,5,4,3,4,6,3,6,6,6,5,4,3,6,4,6,6,2,6
Nachhaltigkeit,4,-1,1,5,4,3,4,1,1,4,2,1,6,2,1,2,5,1,1,-1,3
Nachhaltigkeit,2,3,1,2,3,2,5,3,5,2,2,3,2,2,2,2,3,2,2,4,2
Nachhaltigkeit,3,5,1,4,3,2,4,2,4,4,1,2,6,3,3,1,2,2,1,3,3
Nachhaltigkeit,2,5,1,4,3,2,5,2,2,4,2,1,2,2,2,2,3,1,1,3,3
Nachhaltigkeit,2,4,1,2,3,3,2,1,6,1,2,1,2,4,4,2,2,1,1,3,1
Bildung,4,4,1,4,4,3,-1,2,4,4,3,2,4,5,3,4,6,1,3,5,2
Bildung,2,3,2,3,2,2,4,1,3,2,2,1,2,2,3,2,4,1,3,2,1
Nachhaltigkeit,1,6,1,4,4,2,5,3,3,3,1,1,6,6,3,4,6,1,1,6,2
Nachhaltigkeit,2,6,1,4,2,2,6,1,4,2,3,2,4,5,1,6,4,1,1,5,1
Nachhaltigkeit,2,5,1,2,3,2,3,1,3,2,2,2,3,3,3,2,3,3,1,3,2
Nachhaltigkeit,3,2,2,4,3,4,3,1,3,5,3,1,3,1,5,5,2,1,1,3,3
Nachhaltigkeit,2,4,1,3,2,3,3,2,3,2,2,1,4,3,2,3,4,1,1,5,2
Nachhaltigkeit,2,6,1,3,3,3,3,1,2,3,1,1,3,2,1,2,2,1,1,4,3
Nachhaltigkeit,3,6,1,5,2,2,4,1,4,3,1,1,3,3,2,3,-1,1,1,4,2
Nachhaltigkeit,5,4,1,3,2,4,6,2,2,2,1,3,3,4,5,1,4,3,1,4,2
Management und Technologie,1,4,1,3,1,1,6,1,3,2,1,2,2,1,2,2,3,2,1,3,2
Nachhaltigkeit,4,3,2,4,3,3,2,2,1,3,2,3,3,3,4,2,4,1,2,4,3
Nachhaltigkeit,3,5,1,2,3,4,3,2,2,1,3,1,3,3,2,1,2,2,1,2,2
Nachhaltigkeit,1,4,1,2,1,3,3,1,2,3,1,1,3,3,3,1,3,1,1,3,2
Staatswissenschaften,2,2,2,3,2,4,3,3,1,3,3,3,1,1,3,2,2,1,3,4,2
Nachhaltigkeit,3,5,1,3,4,3,4,3,3,2,2,1,4,4,3,2,5,1,1,5,2
Nachhaltigkeit,1,5,1,2,2,4,3,2,3,2,2,1,2,2,6,4,4,1,1,5,2
Nachhaltigkeit,3,3,1,3,4,3,6,1,2,3,2,2,4,4,4,3,3,2,2,-1,4
Nachhaltigkeit,3,5,2,3,4,1,5,3,4,3,1,2,4,3,2,3,3,1,1,3,2
Nachhaltigkeit,3,5,1,2,4,2,5,1,3,2,1,3,2,4,4,3,2,1,2,5,1
Kulturwissenschaften,2,2,1,3,3,2,5,1,5,1,1,1,2,2,3,2,2,1,1,2,1
Nachhaltigkeit,3,4,1,3,2,4,3,3,3,2,2,1,3,1,4,2,3,1,1,2,3
Bildung,2,4,1,3,3,1,4,1,2,1,1,1,2,1,1,3,5,1,1,1,1
Nachhaltigkeit,2,6,1,4,6,2,-1,3,5,3,1,2,3,-1,1,6,6,2,1,5,1
Kulturwissenschaften,2,3,1,1,4,1,-1,3,6,4,3,5,1,2,5,-1,5,1,3,5,3
Nachhaltigkeit,2,5,1,2,4,2,2,1,4,3,1,2,2,5,1,3,3,2,1,4,3
Management und Technologie,1,2,1,3,1,1,3,5,6,2,1,1,3,1,6,3,3,1,1,1,1
Nachhaltigkeit,2,5,1,4,4,1,5,2,5,2,1,2,4,4,2,5,3,1,1,6,1
Kulturwissenschaften,4,4,2,3,4,2,5,2,4,2,3,3,4,3,3,4,4,2,2,4,3
Bildung,3,3,1,4,1,3,5,3,3,1,1,3,4,4,2,3,4,1,2,3,1
Bildung,3,5,1,3,6,2,-1,1,5,2,5,2,5,4,1,-1,3,2,-1,2,4
Kulturwissenschaften,3,5,1,1,3,3,4,3,6,2,4,2,4,6,3,2,5,1,1,4,3
Kulturwissenschaften,1,4,1,1,1,2,3,3,4,2,1,1,3,2,5,1,3,2,2,1,3
Nachhaltigkeit,3,6,1,4,1,5,5,2,3,4,1,2,1,2,4,5,3,2,1,-1,6
Management und Technologie,2,2,1,4,4,3,5,2,3,3,1,3,3,3,4,4,3,2,1,4,3
Bildung,3,4,3,5,4,3,6,2,3,2,2,1,3,6,2,5,4,1,2,6,3
Nachhaltigkeit,2,5,1,3,3,3,4,2,4,2,2,3,4,3,3,3,3,1,1,4,1
Staatswissenschaften,2,2,1,1,2,3,3,1,3,2,2,1,1,2,3,2,1,1,3,5,1
Bildung,2,4,1,5,2,5,4,3,3,3,2,2,3,2,6,3,3,1,4,1,4
Management und Technologie,3,3,1,3,3,3,4,2,3,3,3,2,3,3,3,2,3,1,2,4,3
Staatswissenschaften,1,4,1,2,2,3,-1,3,5,2,1,1,2,2,3,4,2,1,1,3,1
Bildung,5,4,1,4,3,4,4,2,3,2,3,2,3,3,3,2,4,1,2,5,1
Nachhaltigkeit,2,5,1,2,3,1,3,1,4,2,1,1,3,4,3,3,4,1,1,2,2
Management und Technologie,1,3,1,2,5,1,6,2,3,1,3,1,2,2,1,3,3,1,1,4,1
Nachhaltigkeit,1,3,1,2,3,2,4,3,3,2,1,3,2,3,2,3,3,1,1,3,2
Nachhaltigkeit,1,4,1,3,3,1,4,2,2,4,2,2,3,4,3,1,4,2,1,6,2
Nachhaltigkeit,2,-1,1,3,2,3,4,2,2,2,1,1,4,2,4,2,2,2,1,4,2
Kulturwissenschaften,2,4,1,4,4,4,5,2,4,2,1,1,4,3,3,5,2,2,1,-1,3
Nachhaltigkeit,2,6,1,6,3,3,5,4,4,3,2,3,5,6,3,6,3,4,1,5,3
Staatswissenschaften,2,5,3,4,4,2,2,2,3,4,1,1,2,2,2,3,3,1,2,3,3
Bildung,2,3,2,3,2,3,4,3,5,2,2,2,4,2,4,3,3,1,2,3,2
Staatswissenschaften,3,5,1,4,3,3,3,2,2,4,2,1,3,3,5,3,4,1,1,2,2
Bildung,3,-1,1,5,2,5,2,1,1,3,2,2,3,1,5,1,3,1,1,1,3
Bildung,3,6,1,4,1,3,3,2,1,4,3,2,3,2,5,1,3,2,1,1,3
Kulturwissenschaften,2,3,1,2,2,1,4,1,3,2,1,2,2,3,3,3,3,1,2,4,3
Bildung,1,5,1,3,4,2,-1,2,-1,2,2,2,3,3,4,4,6,4,2,6,3
Nachhaltigkeit,2,5,1,3,2,3,3,2,5,1,2,2,2,2,3,4,3,2,1,-1,1
Nachhaltigkeit,2,-1,1,5,3,2,5,2,2,4,3,2,6,4,2,3,4,2,1,4,3
Kulturwissenschaften,3,4,1,4,4,2,5,2,3,2,3,2,5,3,2,3,5,3,2,4,3
Nachhaltigkeit,2,6,1,6,2,3,-1,2,6,2,2,3,6,3,3,3,5,2,1,4,2
Staatswissenschaften,2,2,1,2,3,3,5,2,2,2,2,1,1,3,3,2,2,1,1,5,4
Nachhaltigkeit,2,5,1,3,3,2,5,2,4,2,2,2,3,3,1,4,3,2,1,4,3
Bildung,2,5,1,2,1,3,6,2,2,2,1,1,3,2,6,2,3,1,2,2,3
Kulturwissenschaften,3,4,1,3,3,4,3,2,2,4,4,2,4,3,5,2,5,2,1,2,4
Staatswissenschaften,2,-1,1,5,4,2,6,1,4,3,2,3,5,5,3,3,4,2,1,-1,3
Management und Technologie,2,3,2,2,2,2,3,1,2,2,1,2,2,4,2,2,1,2,1,2,1
Management und Technologie,2,4,2,4,3,2,5,2,4,2,2,2,3,2,1,3,5,1,3,4,2
Bildung,3,6,1,3,2,4,4,2,5,2,3,1,4,3,6,3,4,2,2,3,3
Bildung,2,5,1,3,3,3,4,2,3,3,2,2,3,4,2,3,4,2,2,3,3
Bildung,1,3,2,3,2,2,3,1,4,2,1,2,2,1,3,2,3,2,1,3,1
Staatswissenschaften,2,4,1,3,4,6,-1,2,2,2,2,1,2,1,5,1,-1,2,1,2,3
Nachhaltigkeit,2,4,1,3,2,3,4,2,3,1,2,1,4,1,4,2,4,1,1,1,2
Management und Technologie,2,3,1,4,5,3,6,3,4,3,1,3,3,2,1,-1,3,1,3,-1,2
Nachhaltigkeit,2,-1,1,3,4,1,-1,1,-1,4,1,2,3,4,2,5,4,2,1,5,2
Management und Technologie,4,3,1,3,1,3,3,2,3,1,1,2,1,1,2,5,3,1,3,-1,1
Bildung,3,4,1,4,2,1,5,1,4,3,2,2,4,2,1,3,4,1,1,5,1
Management und Technologie,1,3,1,3,3,1,5,1,3,4,1,2,2,2,1,4,6,2,1,3,1
Kulturwissenschaften,1,3,3,3,3,1,4,1,3,1,1,1,3,2,1,2,4,1,2,4,1
Bildung,2,5,1,3,2,4,2,2,2,4,2,2,4,2,4,2,3,1,2,1,2
Nachhaltigkeit,2,4,2,2,2,2,3,1,3,2,2,1,3,2,2,2,3,2,1,4,2
Staatswissenschaften,4,4,2,3,2,5,4,2,1,2,3,5,4,2,5,1,4,1,3,6,2
Nachhaltigkeit,2,3,1,4,3,3,4,3,5,1,2,1,2,3,2,2,3,1,1,4,1
Bildung,2,-1,1,5,2,3,3,2,3,4,2,1,5,4,4,1,3,1,-1,-1,6
Management und Technologie,3,4,3,2,2,3,4,4,3,2,2,1,3,3,4,3,3,1,3,3,2
Staatswissenschaften,5,3,-1,3,1,5,1,1,5,1,1,2,1,2,5,3,2,2,4,2,2
Staatswissenschaften,3,3,2,4,3,2,3,1,3,2,1,3,2,3,3,2,4,2,4,3,1
Kulturwissenschaften,2,1,1,2,4,3,5,3,5,1,1,1,1,4,2,3,2,1,3,4,2
Management und Technologie,4,5,5,5,4,5,6,2,3,3,3,4,5,2,4,3,3,3,3,6,3
Bildung,3,5,1,2,1,4,4,2,5,3,4,1,4,3,6,2,2,1,1,6,3
Bildung,2,3,1,2,5,1,5,1,5,2,1,1,2,1,1,2,3,1,2,5,1
Staatswissenschaften,2,5,1,4,2,3,3,1,2,4,1,2,3,2,4,4,5,1,1,3,3
Bildung,2,3,1,3,1,1,3,1,3,2,1,1,2,2,2,2,3,1,1,2,2
Nachhaltigkeit,3,6,1,5,-1,2,4,1,4,3,1,2,6,2,2,5,6,4,1,6,3
Nachhaltigkeit,2,3,2,4,2,2,3,1,4,3,2,2,2,3,4,2,2,3,3,3,2
Bildung,3,3,1,3,2,4,5,2,5,3,2,2,3,3,4,5,4,1,2,5,3
Bildung,3,4,2,2,2,2,3,1,1,1,2,1,4,2,3,2,3,1,2,3,2
Bildung,3,2,2,2,2,3,3,3,3,2,2,2,2,2,2,2,2,2,2,3,2
Kulturwissenschaften,2,6,1,3,3,1,6,1,5,1,1,2,3,2,2,3,1,1,2,6,2
Bildung,3,3,1,2,2,2,5,3,5,2,2,2,2,2,2,2,3,1,1,3,2
Kulturwissenschaften,2,5,3,5,5,2,6,3,5,3,2,3,4,6,3,2,5,1,3,6,2
Staatswissenschaften,4,2,2,1,1,3,5,1,5,3,2,1,1,1,4,3,5,1,3,5,3
Staatswissenschaften,2,3,1,2,3,1,5,1,4,2,1,1,3,3,2,4,2,1,2,4,2
Management und Technologie,2,2,1,2,2,3,4,3,2,1,2,2,2,2,3,1,2,2,2,4,1
Bildung,2,6,1,4,1,3,4,2,3,3,3,1,4,2,4,2,3,1,1,3,3
Staatswissenschaften,2,4,2,5,3,1,5,2,5,2,3,3,2,1,5,4,5,1,4,5,2
Nachhaltigkeit,2,2,1,2,3,2,4,3,5,2,2,3,2,3,2,2,3,1,2,4,2
Management und Technologie,3,3,2,4,2,1,3,1,2,6,1,3,2,4,3,4,5,2,2,1,5
Management und Technologie,2,3,3,3,5,2,-1,1,3,2,1,3,3,2,2,5,2,2,2,1,4
Staatswissenschaften,2,3,1,6,2,4,5,1,1,2,1,3,-1,2,5,2,5,3,1,-1,3
Staatswissenschaften,2,1,2,1,2,1,4,2,4,2,1,2,1,1,2,3,2,1,2,5,1
Bildung,2,3,1,5,3,3,3,2,3,1,2,1,4,1,2,2,4,1,2,4,1
Management und Technologie,1,4,1,2,2,1,2,1,4,1,1,1,3,1,1,2,5,1,3,2,1
Management und Technologie,2,3,2,1,1,2,5,1,1,2,2,3,1,3,5,1,2,1,5,2,3
Bildung,1,4,2,5,5,2,6,1,3,4,2,1,3,-1,3,3,-1,3,2,6,3
Management und Technologie,1,3,1,2,1,3,2,1,1,2,2,1,2,1,4,2,2,1,1,2,3
Kulturwissenschaften,1,-1,2,4,3,2,-1,3,4,1,1,2,-1,6,2,5,6,1,1,6,1
Bildung,2,5,1,3,1,1,4,2,5,1,1,2,5,2,2,3,5,1,1,6,2
Management und Technologie,2,5,1,4,1,2,1,1,2,4,1,1,2,2,2,3,3,1,1,3,3
Kulturwissenschaften,1,2,2,1,1,2,5,3,6,3,1,2,1,1,3,3,3,1,1,2,3
Management und Technologie,3,1,2,3,2,4,6,1,3,2,1,3,3,4,-1,2,3,2,5,2,1
Management und Technologie,1,4,1,4,2,3,3,2,3,4,2,2,3,2,2,3,3,1,3,1,2
Nachhaltigkeit,3,3,1,2,1,3,4,2,2,2,2,1,1,1,3,2,3,1,3,4,2
Management und Technologie,4,3,2,5,3,2,3,1,2,2,1,1,3,2,3,2,3,1,3,4,1
Kulturwissenschaften,3,4,1,5,5,2,2,2,4,3,2,4,4,4,4,2,3,1,3,4,3
Staatswissenschaften,2,5,1,3,3,2,6,2,4,2,2,1,3,4,2,5,5,2,1,-1,3
Management und Technologie,3,3,1,2,3,4,6,1,1,4,1,2,1,4,4,2,3,1,2,5,3
Management und Technologie,3,4,1,5,3,1,6,2,4,1,1,1,5,1,2,2,4,1,3,6,3
Management und Technologie,2,1,1,4,5,3,4,2,3,1,1,2,2,1,5,3,5,1,2,1,-1
Nachhaltigkeit,2,4,1,2,3,3,6,2,4,2,2,1,3,2,3,4,1,2,2,3,3
Bildung,3,3,1,4,1,3,2,1,3,3,1,2,1,1,2,3,2,1,1,3,1
Kulturwissenschaften,1,-1,1,5,3,1,-1,1,5,1,2,4,6,3,4,6,-1,1,1,-1,4
Bildung,3,5,4,5,4,4,5,3,2,1,1,1,3,3,4,5,3,1,1,2,4
Kulturwissenschaften,3,5,2,4,3,2,5,2,2,4,2,2,4,2,2,2,4,1,1,3,1
Bildung,5,4,1,3,2,4,4,2,2,3,1,1,2,2,4,2,3,1,2,5,2
Bildung,1,4,2,4,2,4,5,5,5,3,4,3,4,3,6,2,4,4,1,5,5
Staatswissenschaften,3,5,1,3,2,3,2,1,2,2,2,2,3,2,4,2,3,1,1,3,1
Bildung,4,2,2,1,1,1,4,3,3,3,1,1,1,2,1,1,3,1,1,2,1
Bildung,2,5,1,3,3,2,5,1,5,3,2,1,3,2,3,5,4,1,1,3,2
Management und Technologie,4,1,1,4,1,3,3,3,4,2,4,3,4,3,4,1,1,1,1,4,1
Kulturwissenschaften,4,5,1,5,2,4,3,2,2,3,4,4,5,3,3,3,5,4,3,5,3
Management und Technologie,1,3,1,2,1,1,1,1,2,1,1,1,1,1,1,1,1,1,1,2,1
Kulturwissenschaften,2,4,1,3,3,2,4,2,5,2,1,2,3,3,3,3,4,2,1,3,2
Nachhaltigkeit,2,3,2,2,2,2,3,4,5,1,3,3,1,2,2,3,3,1,3,3,1
Bildung,4,3,1,3,1,4,3,3,2,1,1,2,4,2,5,2,3,2,4,2,1
Kulturwissenschaften,2,5,1,3,4,3,3,2,6,2,2,1,3,2,2,2,2,1,2,4,3
Bildung,2,4,1,2,3,2,4,2,4,1,1,1,1,2,1,4,3,1,4,3,1
Staatswissenschaften,3,5,2,4,4,3,3,2,2,3,2,2,3,3,4,3,4,2,1,2,3
Bildung,1,4,1,3,2,6,-1,2,4,3,1,1,6,3,6,3,4,2,1,4,5
Bildung,2,5,1,3,2,4,4,1,2,3,2,3,3,4,2,2,4,1,2,2,3
Management und Technologie,4,3,1,2,2,3,3,2,2,1,1,3,3,3,4,1,2,2,2,5,2
Management und Technologie,1,1,1,3,4,5,-1,2,4,4,3,2,1,3,2,6,-1,3,1,1,2
Kulturwissenschaften,2,3,1,3,2,2,3,2,2,3,2,2,2,2,3,2,3,2,2,3,2
Kulturwissenschaften,2,5,1,5,1,3,3,2,3,3,2,1,2,2,3,3,2,1,1,3,1
Bildung,2,5,2,4,2,3,4,2,2,2,1,2,4,3,3,3,3,1,2,3,2
Kulturwissenschaften,3,4,1,3,3,2,5,2,4,2,3,1,3,4,2,2,4,1,1,4,1
Management und Technologie,1,3,1,3,4,2,4,1,3,3,1,2,3,3,1,2,3,3,1,5,2
Bildung,2,5,1,4,3,2,6,2,3,3,1,1,5,5,1,5,5,2,1,6,2
Management und Technologie,3,4,1,5,4,2,4,2,4,3,1,2,5,3,2,2,5,3,2,4,2
Kulturwissenschaften,2,3,1,1,3,2,6,1,3,2,2,1,1,1,2,3,4,1,1,4,2
Kulturwissenschaften,1,5,1,3,3,1,6,1,2,2,2,1,4,-1,3,4,3,2,1,3,2
Bildung,4,3,1,3,1,4,5,1,6,3,1,2,2,1,4,2,4,2,3,2,3
Nachhaltigkeit,2,6,1,4,3,2,-1,2,6,3,2,2,5,3,2,5,6,2,1,5,3
Management und Technologie,2,2,1,3,1,5,1,3,3,1,1,2,3,1,6,2,3,2,2,5,2
Nachhaltigkeit,2,5,1,3,3,3,4,2,3,3,3,2,3,3,2,3,4,1,1,4,2
Staatswissenschaften,4,3,2,3,2,2,4,2,4,3,2,2,2,2,4,3,5,2,3,3,2
Bildung,2,6,1,3,2,1,4,1,3,4,2,1,4,2,3,2,5,1,2,5,2
Nachhaltigkeit,1,-1,2,3,4,2,3,2,4,2,2,2,3,3,2,2,3,2,1,4,2
Staatswissenschaften,3,2,2,3,1,3,3,2,3,2,1,2,2,2,3,1,3,2,1,5,3
Kulturwissenschaften,3,4,1,4,2,2,3,2,2,2,2,3,3,3,5,2,4,2,2,3,3
Management und Technologie,2,3,1,2,5,1,-1,1,5,2,2,1,1,3,1,3,3,1,1,4,2
Staatswissenschaften,2,5,1,5,2,1,6,1,3,4,1,2,4,3,4,3,5,1,2,1,2
Kulturwissenschaften,2,-1,2,3,2,1,-1,1,3,2,2,3,4,4,4,3,4,1,2,-1,1
Bildung,3,5,1,6,4,3,5,2,4,3,2,1,5,5,3,4,5,1,1,2,3
Nachhaltigkeit,3,5,1,4,3,3,4,2,2,2,1,1,4,3,3,4,2,1,1,6,2
Staatswissenschaften,2,3,1,2,1,3,4,1,5,2,2,3,2,3,3,3,3,1,1,4,1
Bildung,2,4,2,3,2,4,5,2,2,3,2,2,3,2,4,3,2,1,2,3,3
Management und Technologie,2,3,1,3,1,4,4,3,1,3,1,1,2,2,3,3,3,1,2,6,4
Bildung,2,2,1,3,3,4,2,1,2,3,2,1,2,1,5,1,6,1,4,4,3
Kulturwissenschaften,1,5,1,3,1,2,3,1,3,2,1,1,1,1,5,1,4,2,1,5,2
Bildung,2,3,1,3,4,1,3,2,6,1,1,1,2,2,1,3,3,1,4,2,1
Management und Technologie,3,1,1,1,1,3,3,2,2,1,1,1,1,2,2,3,1,1,3,5,2
Kulturwissenschaften,1,5,1,3,2,3,4,2,3,2,1,2,1,5,4,2,4,1,1,4,3
Kulturwissenschaften,2,4,1,3,2,2,3,1,4,1,2,1,4,2,3,5,5,1,1,6,1
Bildung,3,2,1,3,2,4,5,3,2,2,3,2,3,2,4,3,3,1,2,2,2
Staatswissenschaften,3,4,1,2,4,3,4,2,4,3,1,2,4,3,3,4,4,1,1,5,2
Kulturwissenschaften,2,5,1,5,3,3,6,2,4,3,2,2,3,3,4,3,3,2,2,5,3
Bildung,2,6,1,5,2,3,3,2,3,3,3,1,2,3,5,2,5,1,1,4,3
Kulturwissenschaften,1,6,1,2,5,1,6,1,2,2,1,2,3,4,2,5,5,2,1,6,2
Bildung,3,4,2,3,2,2,4,2,2,3,2,2,4,1,2,3,5,2,3,3,3
Bildung,3,5,1,4,2,3,6,2,2,4,2,2,5,3,4,5,-1,1,1,-1,2
Nachhaltigkeit,1,4,1,3,4,2,4,1,3,2,1,2,3,3,3,3,2,1,1,3,2
Staatswissenschaften,2,3,1,2,2,3,3,2,3,3,3,1,2,3,2,1,4,1,3,3,2
Staatswissenschaften,4,4,1,3,3,2,6,1,2,1,3,2,2,2,2,2,2,1,1,5,2
Management und Technologie,2,6,2,4,5,1,5,3,3,1,1,1,5,4,1,5,6,2,2,6,1
Bildung,2,6,1,3,2,3,4,2,3,2,2,3,3,2,4,3,3,1,1,2,2
Bildung,2,5,1,3,4,3,5,1,5,1,2,2,5,6,2,5,6,2,1,5,2
Management und Technologie,1,-1,1,1,4,3,4,1,4,2,1,2,2,2,2,6,4,1,1,6,5
Management und Technologie,2,4,1,3,4,4,5,2,1,2,2,1,2,5,3,3,5,1,1,6,2
Management und Technologie,3,1,1,4,2,2,2,1,1,1,2,4,2,2,2,2,2,1,4,5,1
Kulturwissenschaften,1,5,1,3,2,1,4,1,2,3,1,2,2,3,2,2,4,2,1,5,3
Management und Technologie,3,2,2,1,3,2,5,2,3,2,2,3,1,3,3,3,2,2,4,5,2
Bildung,1,4,1,3,2,4,3,2,3,3,1,2,3,2,3,2,2,2,1,2,3
Bildung,3,5,1,5,2,3,4,1,1,1,2,2,3,3,3,2,4,1,1,6,2
Bildung,1,4,1,4,2,3,3,1,2,2,1,1,4,2,3,1,3,1,2,2,2
Management und Technologie,2,2,1,3,4,3,3,1,3,2,1,1,2,2,2,2,3,1,1,2,2
Bildung,4,3,1,2,2,3,6,2,4,1,1,1,3,3,4,2,5,1,2,4,1
Bildung,3,4,2,4,1,3,4,2,3,1,2,1,3,3,3,4,4,1,1,1,2
Bildung,3,5,2,3,3,2,4,2,5,3,2,2,4,3,3,4,4,2,3,4,2
Bildung,2,6,2,3,2,3,3,1,2,3,2,1,3,3,3,2,3,1,2,2,2
Bildung,5,4,1,2,1,5,3,1,3,2,3,1,3,2,5,2,4,1,4,4,1
Bildung,2,5,1,4,2,4,3,3,3,3,2,1,2,1,4,1,4,1,3,5,2
Bildung,3,4,1,5,2,4,2,1,2,3,3,2,4,1,5,1,4,1,1,1,3
Staatswissenschaften,4,6,1,3,2,4,4,2,6,1,1,2,3,2,4,3,2,2,1,6,2
Bildung,3,4,1,3,2,2,3,1,3,1,1,1,3,1,2,3,4,1,2,4,1
Bildung,3,2,1,5,2,3,3,1,2,2,4,2,5,3,5,2,3,1,3,2,2
Kulturwissenschaften,3,5,1,2,2,4,3,2,2,2,1,2,1,2,3,2,3,1,2,3,1
Staatswissenschaften,2,-1,1,3,5,3,-1,3,4,1,1,2,-1,6,3,-1,4,1,1,-1,1
Bildung,3,4,1,3,2,3,3,2,3,2,1,2,2,2,3,2,3,1,1,4,3
Staatswissenschaften,3,5,1,3,2,3,4,2,3,6,1,1,2,2,5,3,3,1,1,4,3
Bildung,2,2,1,5,1,4,5,4,3,3,2,3,1,1,5,4,3,1,1,2,3
Kulturwissenschaften,1,3,1,2,1,2,5,1,3,1,1,2,2,1,2,1,4,2,2,2,1
Staatswissenschaften,4,3,1,1,1,3,3,1,5,3,1,1,1,3,6,1,5,1,5,4,5
Kulturwissenschaften,2,3,1,3,3,3,3,1,2,3,3,3,3,3,3,3,4,2,2,3,3
Bildung,3,3,2,5,3,3,1,3,2,1,2,3,1,1,4,3,2,3,3,1,3
Kulturwissenschaften,5,-1,1,2,5,1,6,2,5,3,2,1,2,4,3,1,3,2,1,6,1
Kulturwissenschaften,2,4,1,2,1,4,4,2,2,3,1,1,2,3,4,2,2,1,1,4,3
Management und Technologie,2,6,2,3,2,2,2,1,1,5,1,1,2,1,3,2,2,1,2,2,3
Nachhaltigkeit,5,4,-1,4,-1,6,2,3,1,4,6,3,4,3,5,3,5,4,6,2,3
Management und Technologie,2,3,1,3,2,4,6,1,2,1,1,2,3,3,2,3,3,1,2,5,1
Bildung,1,5,2,3,1,2,2,2,3,3,2,1,3,1,6,2,3,2,3,2,4
Bildung,2,5,1,3,1,4,4,1,3,3,2,1,3,4,4,2,5,1,1,4,4
Bildung,3,6,2,5,2,5,4,1,2,2,1,1,3,3,4,2,5,2,1,6,3
Nachhaltigkeit,1,4,1,2,2,1,3,1,4,1,2,2,2,3,3,3,4,1,1,5,1
Nachhaltigkeit,2,4,2,2,3,2,5,2,3,3,1,2,3,3,3,2,5,1,2,3,1
Bildung,2,3,1,2,1,2,4,2,2,4,1,1,2,3,4,2,6,3,3,2,1
Bildung,1,-1,2,3,2,2,3,1,5,2,2,2,3,2,2,4,4,2,3,4,1
Bildung,3,-1,1,5,3,4,4,2,3,5,3,2,4,4,4,1,4,2,2,4,4
Bildung,2,4,1,2,2,3,3,1,3,2,3,1,3,3,3,2,6,1,1,1,1
Kulturwissenschaften,2,6,1,1,5,2,4,1,4,4,2,1,3,4,1,1,3,1,1,5,3
Bildung,2,3,3,3,2,2,4,3,5,2,2,2,2,3,4,3,4,2,2,6,3
Staatswissenschaften,2,5,1,3,3,2,2,2,4,2,2,1,2,2,2,2,5,1,2,1,1
Bildung,3,3,1,3,2,1,5,1,2,2,1,2,2,2,2,1,3,2,1,3,3
Nachhaltigkeit,2,4,1,1,1,5,1,2,5,1,1,2,2,1,6,1,2,1,2,3,2
Nachhaltigkeit,3,4,1,4,3,2,4,1,3,4,3,2,3,3,3,2,5,1,1,2,3
Management und Technologie,4,1,3,5,1,4,4,2,4,1,1,4,2,2,-1,2,4,3,5,6,5
Management und Technologie,2,2,3,1,3,2,4,1,3,2,1,3,1,1,2,4,3,2,2,2,2
Bildung,2,5,1,4,3,3,3,1,3,3,2,2,4,3,2,3,4,3,1,4,3
Nachhaltigkeit,3,5,1,5,5,1,3,1,3,2,1,1,5,3,2,3,5,1,1,3,3
Bildung,2,4,1,2,2,2,4,2,3,2,1,2,2,3,3,2,2,1,1,2,2
Management und Technologie,4,5,1,5,2,4,4,3,2,2,1,3,5,2,5,3,5,1,2,6,2
Management und Technologie,1,3,1,2,4,1,1,1,3,2,2,1,3,2,2,2,3,1,1,5,2
Nachhaltigkeit,4,5,6,5,4,3,3,2,2,6,1,2,4,4,5,4,4,1,2,3,3
Management und Technologie,4,6,1,4,4,4,4,3,3,2,3,2,3,3,3,2,3,1,2,4,2
Bildung,2,5,1,3,2,3,5,2,4,3,2,2,3,3,3,2,5,1,2,4,1
Staatswissenschaften,3,3,1,2,4,3,3,2,3,3,2,2,2,3,4,2,2,1,2,4,2
Bildung,3,5,2,3,3,3,2,2,4,3,4,1,3,3,2,4,1,2,3,2,2
Nachhaltigkeit,3,5,1,4,2,2,4,1,4,3,2,1,3,3,3,3,5,1,1,5,2
Staatswissenschaften,2,5,1,4,3,3,5,3,5,6,2,1,4,3,2,4,3,1,1,4,1
Nachhaltigkeit,5,2,1,2,1,5,3,3,3,3,5,4,2,3,6,2,2,1,3,1,3
Bildung,3,4,1,2,2,3,3,2,4,2,3,2,3,1,3,2,3,1,2,3,1
Kulturwissenschaften,2,4,1,2,2,5,6,3,3,5,2,2,4,5,5,3,6,1,2,6,4
Management und Technologie,2,2,2,3,4,2,4,3,3,2,1,2,3,1,2,4,2,1,4,3,1
Bildung,3,3,2,5,4,4,4,2,3,4,1,3,5,3,5,5,5,2,3,5,3
Staatswissenschaften,4,-1,1,3,3,3,6,1,2,2,2,1,5,4,3,2,4,1,1,6,2
Bildung,3,3,1,2,1,4,3,1,1,2,3,1,2,2,5,1,3,1,1,3,3
Bildung,2,5,2,4,3,3,5,2,3,2,3,1,3,3,3,4,3,1,2,3,2
Bildung,1,3,1,2,1,3,3,3,3,3,2,1,3,2,5,2,3,2,3,3,1
Management und Technologie,3,3,1,2,3,2,5,2,6,1,1,1,2,4,2,4,5,2,1,5,1
Nachhaltigkeit,3,3,2,3,5,2,4,3,4,2,2,3,1,1,2,3,3,1,2,3,3
Bildung,3,3,1,4,2,4,2,1,1,3,1,1,3,2,4,2,3,1,2,3,2
Kulturwissenschaften,2,6,1,4,2,1,-1,1,4,2,2,1,6,2,1,5,3,1,2,1,1
Staatswissenschaften,4,4,3,2,2,2,4,2,3,4,1,1,1,1,1,2,3,1,5,4,5
Nachhaltigkeit,3,-1,1,3,2,3,-1,1,3,4,2,3,-1,4,4,-1,6,1,1,5,3
Bildung,4,4,1,-1,2,3,6,3,3,2,2,3,5,2,4,5,-1,1,2,-1,2
Kulturwissenschaften,1,4,1,3,2,2,3,2,2,1,1,1,2,1,2,1,3,1,1,4,2
Nachhaltigkeit,2,1,1,1,2,2,2,2,5,1,1,1,2,1,3,2,3,1,3,3,1
Management und Technologie,2,2,1,2,5,1,5,1,3,2,1,1,2,3,1,4,2,2,1,4,3
Management und Technologie,3,5,1,5,4,2,6,1,4,4,3,2,4,6,3,3,5,2,3,6,3
Nachhaltigkeit,2,4,1,3,3,2,4,2,4,2,2,1,2,4,3,3,3,1,1,4,2
Kulturwissenschaften,2,3,1,3,3,2,5,5,4,3,2,3,4,4,3,4,4,1,2,5,2
Management und Technologie,3,2,1,1,3,3,3,2,3,1,2,3,2,1,3,3,2,1,3,2,3
Staatswissenschaften,2,4,1,3,3,2,3,1,3,3,2,2,3,2,3,3,4,1,1,4,2
Management und Technologie,2,3,1,2,2,2,2,1,3,2,2,2,3,2,2,2,2,1,2,3,2
Bildung,4,4,1,3,4,3,3,1,4,3,3,2,4,3,4,3,5,2,2,4,3
Nachhaltigkeit,2,6,1,3,4,3,5,2,2,3,3,2,3,5,3,4,4,1,1,5,2
Bildung,3,5,1,2,2,2,4,2,4,2,2,2,3,2,1,5,3,1,2,3,2
Management und Technologie,3,5,1,2,4,3,5,2,5,3,2,2,2,2,2,3,3,1,1,3,3
Bildung,2,3,1,2,1,4,2,2,3,3,2,1,2,3,4,2,2,1,3,2,4
Management und Technologie,1,2,1,3,1,2,6,1,6,1,3,2,3,-1,1,3,2,1,3,5,1
Bildung,2,4,1,2,3,2,5,1,3,1,1,2,2,2,2,4,3,1,3,5,1
Management und Technologie,1,1,1,2,1,2,2,1,3,2,1,1,1,2,3,2,2,1,2,2,2
Kulturwissenschaften,1,-1,1,4,4,2,4,1,3,3,2,1,4,3,1,5,4,1,2,5,2
Kulturwissenschaften,2,2,1,2,4,3,4,3,5,3,1,2,1,2,3,4,2,3,3,5,3
Bildung,1,2,1,3,4,3,1,1,1,1,3,1,1,2,4,1,2,1,1,4,5
Kulturwissenschaften,2,6,1,5,4,1,3,1,2,2,1,1,3,3,2,3,3,1,1,2,1
Nachhaltigkeit,2,5,1,4,4,3,4,2,2,2,2,1,3,5,3,4,5,2,1,4,2
Nachhaltigkeit,2,6,1,2,3,2,5,1,3,2,2,1,4,4,4,2,3,2,1,5,3
Staatswissenschaften,2,4,1,5,1,4,3,2,1,3,1,1,3,5,5,1,4,1,1,4,3
Bildung,3,5,1,1,2,2,4,1,4,4,1,1,3,3,3,2,4,1,3,2,3
Kulturwissenschaften,1,4,1,3,5,3,-1,3,5,2,1,1,3,3,2,4,3,1,1,-1,3
Bildung,1,4,1,5,4,2,4,4,1,5,2,4,4,1,-1,1,5,1,4,2,3
Management und Technologie,2,3,1,1,2,3,4,3,4,3,2,1,2,3,2,2,3,2,2,4,3
Management und Technologie,2,2,1,4,2,2,4,1,2,2,2,1,2,3,2,1,3,2,1,2,1
Management und Technologie,2,2,2,3,2,1,2,2,4,1,2,1,1,1,4,3,4,1,2,2,1
Bildung,4,6,1,5,2,3,6,1,3,4,3,1,5,3,4,2,4,1,1,1,4
Bildung,2,3,1,2,1,3,4,2,2,2,2,2,1,1,2,3,3,2,1,3,2
Management und Technologie,3,2,1,3,4,1,2,1,3,2,1,2,2,4,1,3,2,1,3,5,2
Staatswissenschaften,3,2,2,3,2,3,3,2,3,2,1,2,3,2,3,1,4,1,1,3,2
Bildung,6,3,2,4,1,2,2,4,3,1,2,2,4,2,3,1,3,1,3,5,1
Staatswissenschaften,3,3,2,1,6,1,5,2,5,1,2,3,2,3,2,5,4,2,5,5,1
Bildung,2,5,1,5,2,3,3,1,3,4,2,2,4,3,5,1,5,1,2,3,3
Bildung,2,5,1,5,3,1,4,1,4,3,2,1,2,3,2,1,5,1,1,3,2
Bildung,1,3,1,1,2,3,5,3,4,1,2,1,2,2,4,4,3,1,2,3,1
Bildung,2,3,2,3,2,3,4,2,3,1,1,2,1,1,3,3,3,1,1,2,2
Nachhaltigkeit,3,6,1,3,4,4,-1,2,-1,2,1,1,2,2,3,2,6,1,1,3,2
Staatswissenschaften,4,-1,2,5,4,4,5,2,4,5,3,2,5,6,5,5,4,3,2,6,6
Staatswissenschaften,3,1,2,2,2,3,3,3,3,1,2,2,2,2,4,2,2,2,2,3,2
Kulturwissenschaften,1,3,2,1,4,4,5,3,5,2,1,3,1,3,2,5,4,1,2,3,1
Kulturwissenschaften,3,5,2,3,3,2,6,2,4,3,2,4,3,5,3,3,3,1,2,4,2
Nachhaltigkeit,2,5,2,3,4,2,6,4,4,3,3,2,3,5,2,3,4,1,2,5,2
Kulturwissenschaften,3,6,1,6,2,3,6,1,5,1,1,1,4,3,5,2,6,1,1,4,1
Kulturwissenschaften,3,3,3,5,2,3,4,4,1,2,3,4,4,4,4,2,3,4,4,6,2
Management und Technologie,3,2,2,4,5,2,-1,2,3,1,1,2,2,3,2,2,5,1,3,-1,2
Kulturwissenschaften,4,4,1,2,2,5,5,3,2,1,1,2,3,5,4,3,3,2,1,6,1
Bildung,2,2,1,2,1,2,3,1,2,2,2,1,2,1,1,2,3,1,2,2,2
Bildung,5,5,2,6,4,5,3,4,1,2,3,5,4,3,6,4,4,2,2,4,2
Kulturwissenschaften,1,5,1,2,2,2,5,3,3,3,2,1,4,3,5,2,4,1,1,3,4
Management und Technologie,2,3,1,-1,2,4,-1,4,4,5,4,2,5,1,3,-1,-1,1,4,-1,6
Bildung,4,4,1,6,5,4,5,2,4,4,1,2,5,4,4,5,5,2,2,5,3
Nachhaltigkeit,5,5,1,2,3,2,5,1,4,2,1,3,1,1,2,5,3,1,1,6,2
Kulturwissenschaften,2,3,1,3,2,3,5,3,3,2,1,2,2,2,3,3,3,1,2,3,2
Bildung,3,6,1,4,2,4,4,1,2,3,2,1,6,4,5,3,4,1,1,2,3
Bildung,3,5,1,4,3,4,5,1,3,3,2,1,4,4,3,3,5,1,1,3,3
Nachhaltigkeit,2,5,1,1,3,2,-1,1,4,3,2,2,1,2,3,3,5,2,1,3,2
Nachhaltigkeit,2,5,1,5,3,3,3,2,1,2,1,2,3,3,5,1,3,1,2,2,2
Staatswissenschaften,1,5,1,4,5,1,4,2,3,2,3,2,2,2,1,4,3,2,2,4,1
Management und Technologie,2,2,1,3,3,2,4,2,4,3,1,2,2,3,2,3,3,2,3,2,2
Nachhaltigkeit,4,4,1,3,3,2,5,2,4,1,1,2,2,3,4,2,2,1,1,5,2
Staatswissenschaften,2,5,1,3,1,2,1,2,3,2,1,1,2,2,3,2,3,2,1,2,2
Bildung,4,4,1,4,2,1,-1,1,2,1,1,1,3,2,5,2,4,1,1,2,1
Nachhaltigkeit,1,-1,1,4,5,3,5,3,4,2,1,1,3,4,4,2,5,1,1,6,3
Nachhaltigkeit,3,5,1,6,3,2,2,2,1,2,2,1,3,2,4,2,3,1,1,2,2
Bildung,3,3,1,3,3,2,5,4,3,2,2,2,3,1,3,2,3,1,2,2,1
Kulturwissenschaften,3,5,1,2,4,3,6,1,3,3,2,3,4,4,4,3,5,3,1,5,2
Bildung,3,2,1,4,3,2,3,2,2,2,2,2,2,2,2,2,4,2,2,2,2
Kulturwissenschaften,2,5,1,5,2,3,5,1,2,3,2,1,5,3,4,3,6,1,1,5,3
Nachhaltigkeit,3,3,1,6,3,3,4,2,2,2,2,1,3,3,4,2,3,1,1,4,2
Kulturwissenschaften,3,5,1,4,3,3,4,2,2,2,3,1,3,4,2,1,3,1,1,4,1
Kulturwissenschaften,2,5,3,6,5,2,6,2,4,3,1,2,2,3,2,3,3,2,2,4,1
Management und Technologie,1,2,1,2,3,1,6,2,3,2,1,1,1,1,3,2,6,1,6,1,1
Kulturwissenschaften,3,3,1,3,4,3,5,2,2,2,2,1,3,3,4,1,4,1,1,5,1
Bildung,2,4,1,3,2,3,4,1,5,1,1,1,2,1,3,2,-1,1,1,3,2
Nachhaltigkeit,4,4,2,3,4,3,4,3,5,3,2,2,5,5,3,3,3,2,1,5,3
Bildung,2,4,1,3,3,3,4,2,3,2,2,1,2,3,3,2,3,1,1,3,2
Bildung,1,4,1,2,3,1,3,2,3,1,1,1,1,1,3,2,2,1,1,2,1
Management und Technologie,5,3,1,3,2,3,4,2,2,4,3,3,3,4,3,2,4,1,2,4,2
Bildung,2,-1,2,6,2,3,5,2,4,2,2,2,6,1,3,2,1,1,1,6,1
Bildung,3,3,1,2,2,3,3,1,3,3,1,1,2,2,3,2,4,1,1,2,1
Nachhaltigkeit,2,5,2,1,3,3,4,1,5,1,2,2,2,3,3,2,2,2,2,2,3
Kulturwissenschaften,2,6,1,3,4,1,6,2,2,2,2,2,5,2,1,2,2,1,1,4,2
Nachhaltigkeit,3,5,1,3,4,4,4,2,2,3,3,2,4,3,4,2,3,2,1,5,3
Nachhaltigkeit,3,2,1,2,5,2,5,2,6,1,3,2,2,4,1,5,4,1,3,6,2
Bildung,2,5,1,3,4,2,4,1,4,4,1,1,3,3,2,4,5,4,2,5,2
Staatswissenschaften,2,2,1,4,3,2,3,1,3,2,1,3,1,1,4,4,2,2,1,3,2
Kulturwissenschaften,2,5,1,3,3,5,5,2,4,3,4,2,4,3,5,2,4,2,2,5,4
Bildung,3,4,1,3,1,1,5,1,4,4,1,1,3,2,3,2,4,3,1,5,3
Bildung,2,4,2,2,3,2,3,3,3,3,2,2,3,4,3,3,3,2,2,-1,2
Nachhaltigkeit,2,3,1,3,3,3,3,2,4,2,1,2,2,3,3,3,3,2,2,2,3
Bildung,2,5,1,4,1,2,4,1,3,1,1,1,3,2,4,1,3,1,2,3,1
Kulturwissenschaften,2,6,1,4,3,2,6,2,3,2,1,1,5,3,1,5,4,1,1,3,1
Management und Technologie,3,4,2,6,3,2,4,2,2,2,2,3,5,4,2,3,4,1,3,4,2
Nachhaltigkeit,2,5,2,3,3,1,5,2,5,2,2,2,4,2,2,3,3,2,3,5,2
Nachhaltigkeit,2,3,1,3,2,2,3,1,3,2,1,3,3,2,2,4,4,2,2,4,2
Staatswissenschaften,2,1,1,1,4,1,6,2,5,1,2,2,1,2,1,5,3,1,3,3,1
Staatswissenschaften,3,-1,1,3,4,3,4,2,2,3,2,2,3,5,3,3,4,2,1,5,3
Nachhaltigkeit,3,6,2,5,2,3,3,2,1,2,1,2,5,3,4,2,5,1,1,6,3
Bildung,3,4,1,3,3,3,4,2,1,3,2,1,4,4,4,2,3,1,2,1,3
Management und Technologie,2,2,1,3,2,3,5,1,3,2,1,1,3,4,4,3,4,1,1,3,1
Bildung,2,4,2,2,1,2,4,2,2,1,1,1,2,1,3,2,2,1,3,3,1
Bildung,2,4,1,2,2,3,4,1,2,2,2,1,3,3,3,1,4,1,1,4,2
Management und Technologie,3,4,1,5,2,4,5,3,2,2,1,3,2,2,2,1,3,3,2,6,2
Bildung,4,2,1,2,1,5,2,2,3,1,1,1,2,1,6,2,5,1,5,5,1
Management und Technologie,2,1,1,4,2,2,5,2,4,1,1,2,3,3,1,3,4,1,3,4,2
Bildung,4,5,1,2,4,3,3,1,2,3,2,2,3,2,4,2,4,2,3,5,2
Nachhaltigkeit,2,5,1,3,2,2,4,1,3,3,3,1,5,3,3,4,4,1,1,4,2
Staatswissenschaften,3,2,4,5,4,3,-1,2,4,2,1,2,4,2,2,4,4,1,3,4,3
Nachhaltigkeit,3,4,1,3,2,3,3,2,3,2,2,2,3,2,4,1,4,3,3,4,2
Bildung,4,5,2,2,3,4,5,4,5,2,1,3,3,4,1,2,2,3,2,1,1
Management und Technologie,5,4,2,4,4,3,6,2,2,5,1,2,3,3,3,3,3,1,2,3,5
Management und Technologie,2,5,1,3,2,5,2,2,1,1,1,2,4,3,5,2,4,1,2,5,2
Management und Technologie,2,4,1,3,3,5,5,2,3,5,1,1,2,3,4,6,3,2,1,1,1
Management und Technologie,3,3,1,1,2,2,2,1,2,4,5,3,2,3,3,1,2,1,2,4,4
Nachhaltigkeit,3,4,1,4,4,2,5,2,4,4,1,1,3,4,1,5,4,1,1,4,1
Nachhaltigkeit,2,5,1,2,2,4,2,3,4,2,2,2,1,2,4,1,3,1,1,3,2
Nachhaltigkeit,3,2,1,2,2,3,4,1,5,2,2,3,2,3,3,3,4,1,4,5,3
Staatswissenschaften,1,-1,2,5,4,3,4,1,3,2,2,1,3,3,2,4,6,1,2,5,3
Bildung,2,5,2,2,1,1,5,1,5,2,3,2,4,2,1,6,3,1,1,5,2
Management und Technologie,2,2,3,3,1,3,3,1,2,4,2,2,1,3,3,1,-1,1,1,5,4
Bildung,2,3,1,3,1,5,4,3,4,3,4,1,4,3,4,4,3,2,1,1,2
Nachhaltigkeit,2,3,1,3,4,1,5,1,4,2,3,2,3,2,3,3,3,2,2,2,2
Kulturwissenschaften,2,2,1,2,4,4,4,2,3,1,2,2,2,4,2,2,2,1,1,5,2
Management und Technologie,3,3,1,2,2,4,4,2,3,3,3,2,3,3,4,2,4,2,2,5,3
Management und Technologie,3,3,2,5,3,2,6,5,5,1,1,5,5,1,2,4,3,3,1,4,1
Bildung,1,-1,1,4,6,2,6,1,3,1,1,2,6,4,3,5,-1,2,2,4,1
Management und Technologie,1,3,2,2,2,1,-1,1,1,1,1,3,2,2,5,3,2,1,3,3,1
Staatswissenschaften,3,4,1,2,3,4,5,4,6,2,2,1,1,1,3,5,5,1,1,-1,2
Bildung,2,6,1,6,2,3,3,3,1,5,1,1,6,2,5,1,6,3,4,3,5
Bildung,1,6,1,3,3,5,6,2,3,4,3,1,5,4,5,1,5,1,2,5,2
Nachhaltigkeit,1,4,1,4,5,5,5,2,3,2,1,2,3,4,3,4,5,1,1,6,2
Kulturwissenschaften,1,5,1,5,3,3,4,2,3,2,3,2,4,3,3,2,4,1,1,3,2
Staatswissenschaften,4,3,1,5,2,2,5,2,5,2,2,1,5,4,3,4,5,1,3,6,2
Management und Technologie,2,2,2,2,3,2,6,3,4,2,2,2,2,3,2,2,2,1,3,4,2
Management und Technologie,3,4,1,2,2,3,4,2,4,2,1,2,2,2,2,2,3,1,3,6,2
Bildung,2,3,1,3,2,3,3,2,5,1,2,2,3,1,2,3,3,1,1,4,1
Management und Technologie,2,3,1,2,4,2,5,2,-1,1,1,2,1,4,1,4,3,1,2,5,2
Nachhaltigkeit,2,5,1,3,3,2,5,3,5,2,2,2,2,2,2,4,3,2,1,6,2
Management und Technologie,2,2,1,2,1,1,4,2,4,2,1,1,1,3,2,2,2,1,2,4,2
Kulturwissenschaften,2,4,1,3,3,2,4,2,2,2,1,2,3,2,3,3,3,1,1,5,2
Management und Technologie,2,3,3,3,5,2,3,2,3,3,1,4,2,1,2,4,3,1,1,1,2
Bildung,2,5,1,3,3,1,5,1,3,2,2,1,4,4,2,5,3,1,1,6,1
Management und Technologie,3,1,1,3,3,4,5,3,2,4,1,2,2,1,2,2,2,1,1,4,3
Nachhaltigkeit,1,6,1,1,4,1,5,1,4,1,2,1,3,2,2,2,2,1,2,6,1
Staatswissenschaften,1,2,1,2,3,3,3,1,4,3,2,2,2,1,3,3,3,1,2,4,1
Bildung,3,4,2,3,3,4,4,3,3,3,3,2,3,2,5,2,4,2,2,3,2
Bildung,3,3,1,3,3,3,3,1,2,4,2,2,3,2,1,3,4,1,2,5,1
Management und Technologie,4,3,2,5,2,5,3,4,3,4,2,3,3,3,4,2,4,2,2,3,3
Staatswissenschaften,1,5,1,3,2,3,6,1,4,5,1,2,6,2,4,3,4,1,1,3,6
Nachhaltigkeit,2,5,1,6,5,2,-1,1,3,3,3,1,5,5,2,4,5,1,1,6,3
Kulturwissenschaften,2,3,1,3,5,2,5,1,4,2,2,2,2,3,3,2,4,1,2,2,1
Bildung,4,3,1,3,2,3,4,2,5,1,1,1,2,1,2,4,5,1,2,2,2
Bildung,5,4,2,4,3,4,5,3,3,2,3,3,3,2,4,2,5,2,2,5,3
Bildung,1,5,1,2,3,1,-1,2,3,2,1,1,3,2,4,2,4,3,2,3,2
Nachhaltigkeit,2,6,1,3,2,3,5,3,3,4,1,1,4,3,2,4,5,1,1,5,1
Bildung,1,4,1,3,3,2,5,2,3,1,1,1,4,1,2,3,4,1,2,2,1
Bildung,2,4,1,3,2,3,4,2,3,3,3,1,3,2,3,2,3,1,1,5,3
Management und Technologie,3,3,1,-1,3,4,6,2,2,5,1,3,6,4,3,3,5,1,3,4,2
Management und Technologie,3,3,1,-1,2,4,3,2,3,1,2,3,4,3,2,3,5,3,3,1,1
Bildung,5,3,2,1,5,4,1,2,3,1,1,5,2,2,3,1,3,2,2,5,2
Kulturwissenschaften,2,6,1,4,4,2,4,2,4,2,2,2,3,4,2,6,3,2,1,6,2
Kulturwissenschaften,3,-1,1,5,2,3,-1,1,4,2,2,1,5,4,6,2,5,1,2,4,2
Bildung,3,3,1,2,4,2,4,1,5,2,2,1,2,4,2,2,4,1,1,3,1
Kulturwissenschaften,1,5,3,5,2,3,4,3,2,4,1,4,5,3,4,2,3,4,2,-1,4
Bildung,2,3,1,4,1,4,2,2,3,5,2,2,3,2,6,1,2,1,2,4,3
Kulturwissenschaften,3,6,1,3,3,2,4,2,2,1,2,2,3,1,3,1,4,2,1,3,2
Staatswissenschaften,2,3,2,3,2,3,3,2,4,2,1,2,1,2,1,4,4,2,2,3,2
Bildung,1,3,1,3,3,3,4,3,3,2,2,1,3,2,3,2,3,2,2,1,1
Bildung,4,3,1,3,2,5,6,2,3,1,2,2,3,1,3,2,2,1,1,-1,2
Bildung,3,4,2,2,1,4,5,2,1,4,2,1,3,3,4,2,1,1,4,1,3
Kulturwissenschaften,2,3,1,2,4,2,6,3,4,4,1,2,3,3,2,5,3,2,2,4,3
Bildung,4,4,1,4,2,3,1,1,3,4,4,1,4,4,4,3,4,2,1,3,3
Management und Technologie,2,2,2,2,1,-1,3,1,1,3,1,3,2,2,2,2,3,2,2,-1,3
Bildung,1,5,1,2,2,3,4,2,1,4,1,1,2,2,3,2,4,1,1,3,3
Bildung,2,5,1,3,2,3,-1,1,1,1,1,3,5,4,4,2,2,1,2,3,2
Kulturwissenschaften,2,5,1,3,5,1,2,1,3,2,1,1,2,2,1,4,2,1,1,3,1
Bildung,2,2,1,1,2,2,5,2,4,2,1,2,1,2,2,6,1,1,4,2,1
Bildung,1,5,1,3,2,1,4,2,3,2,1,1,3,2,2,1,3,1,1,2,1
Staatswissenschaften,3,2,1,2,1,3,1,2,5,2,1,4,1,1,3,2,1,2,4,1,4
Bildung,4,2,1,2,3,3,5,3,4,2,1,2,2,1,2,2,2,1,3,1,2
Management und Technologie,3,3,3,1,5,3,5,2,6,4,1,2,1,4,2,5,2,2,2,5,2
Bildung,2,5,1,3,3,2,5,2,5,3,2,2,4,3,2,3,5,2,3,2,1
Management und Technologie,2,3,1,3,1,1,5,2,3,3,1,1,3,2,2,1,4,1,1,3,2
Management und Technologie,2,3,1,3,1,2,5,2,3,4,1,2,2,1,1,5,4,2,3,6,2
Staatswissenschaften,2,4,1,3,1,5,6,1,1,2,1,3,3,2,4,3,5,2,1,2,3
Bildung,3,5,1,2,2,2,3,1,3,2,2,1,2,1,3,3,4,1,1,2,2
Bildung,1,4,1,1,1,1,3,1,3,1,1,1,4,3,2,3,2,1,1,4,1
Nachhaltigkeit,1,4,1,4,3,3,3,1,3,2,1,1,5,3,3,3,4,1,1,3,3
Nachhaltigkeit,2,-1,1,2,3,3,-1,2,6,3,3,2,2,-1,2,3,4,2,1,6,5
Management und Technologie,1,2,1,4,3,2,4,1,2,2,2,2,1,3,1,1,4,2,3,4,2
Nachhaltigkeit,2,3,1,2,3,4,3,3,4,2,3,3,1,2,4,2,3,1,2,4,4
Staatswissenschaften,3,6,1,1,3,3,5,2,2,3,1,2,2,3,3,4,5,2,1,4,4
Bildung,2,4,1,2,1,-1,3,1,4,1,1,1,5,5,4,1,3,1,5,-1,2
Nachhaltigkeit,3,6,1,3,3,2,5,2,4,2,2,1,2,4,3,5,3,1,1,6,2
Bildung,2,1,1,3,1,1,3,1,6,2,1,2,2,1,1,2,3,2,2,3,1
Bildung,3,4,1,2,2,4,4,2,3,1,1,1,2,2,3,2,4,1,2,1,1
Staatswissenschaften,2,5,1,5,3,2,5,2,5,1,1,2,2,3,2,4,5,1,1,4,1
Management und Technologie,4,2,1,2,2,5,5,3,4,2,3,2,2,2,4,3,4,2,2,5,3
Bildung,3,4,2,5,4,3,5,2,3,3,3,3,3,3,3,5,4,3,3,5,3
Nachhaltigkeit,1,4,2,2,4,2,5,1,4,2,1,1,3,4,1,3,5,2,1,5,2
Kulturwissenschaften,1,4,1,1,5,4,-1,2,5,1,1,2,1,6,1,5,1,1,1,3,1
Management und Technologie,2,1,3,1,2,2,3,2,4,2,1,3,1,1,1,3,2,1,3,1,2
Bildung,3,4,1,3,1,4,5,1,3,3,1,1,4,2,4,2,3,2,1,6,4
Kulturwissenschaften,1,4,1,3,4,2,5,1,5,2,2,1,3,3,2,3,4,2,1,5,1
Bildung,1,3,2,2,4,2,4,4,3,3,2,1,1,2,2,3,2,2,3,3,2
Bildung,4,-1,2,6,5,3,5,2,2,5,5,2,6,4,3,4,6,1,3,1,5
Kulturwissenschaften,1,3,1,3,4,2,5,1,4,3,1,2,3,3,1,3,4,1,1,6,2
Nachhaltigkeit,2,4,1,2,2,3,5,1,2,2,1,2,3,2,1,1,3,1,1,5,1
Bildung,1,3,1,2,1,3,3,4,3,3,2,1,3,2,3,2,3,2,3,3,1
Nachhaltigkeit,3,3,1,4,2,4,3,2,1,2,2,2,4,3,3,4,4,1,1,5,3
Bildung,1,5,1,3,2,2,3,2,2,3,2,2,4,2,3,2,2,1,1,1,3
Staatswissenschaften,2,6,1,4,3,2,5,2,2,1,2,1,4,4,2,1,1,1,1,5,1
Bildung,2,6,1,6,1,3,3,2,2,3,3,2,5,3,4,2,2,1,2,2,2
Bildung,3,5,1,4,6,2,2,1,4,2,1,2,3,3,2,2,3,1,1,6,1
Staatswissenschaften,3,3,3,3,3,3,4,2,5,2,1,2,2,3,3,4,3,2,2,2,3
Nachhaltigkeit,2,-1,1,2,3,4,5,1,2,1,1,1,3,2,4,5,5,1,1,5,1
Nachhaltigkeit,3,3,2,4,4,1,3,3,3,1,1,2,5,-1,1,4,-1,3,1,2,3
Bildung,4,2,1,5,3,3,3,2,4,2,2,1,5,2,2,4,4,1,1,2,4
Staatswissenschaften,2,3,2,3,2,2,4,1,6,3,3,1,3,3,3,2,3,1,2,3,1
Staatswissenschaften,1,6,1,3,3,2,4,1,3,5,1,1,3,2,3,1,4,2,1,3,2
Staatswissenschaften,3,4,1,4,2,3,3,2,3,2,2,2,3,1,3,3,2,2,3,2,2
Bildung,1,4,1,3,3,2,-1,2,4,2,2,3,4,5,2,-1,4,2,2,3,3
Staatswissenschaften,2,4,2,3,2,1,2,1,2,3,2,1,2,3,4,4,3,1,4,1,3
Bildung,1,3,1,1,2,1,3,1,3,1,1,1,3,1,1,1,2,1,1,1,1
Bildung,2,5,1,4,3,1,-1,1,4,2,1,1,5,3,2,2,3,1,2,3,1
Management und Technologie,2,4,1,4,3,2,6,1,2,3,1,1,4,2,3,2,4,1,2,6,2
Staatswissenschaften,1,3,2,3,3,4,3,3,5,3,4,3,3,3,4,4,4,3,2,4,2
Bildung,2,5,2,5,3,3,-1,2,3,3,1,1,4,4,3,2,5,1,2,5,1
Kulturwissenschaften,2,3,3,2,4,2,-1,1,6,3,2,2,2,6,3,3,2,2,3,5,3
Management und Technologie,4,3,1,5,3,3,6,1,3,6,1,2,2,3,6,1,6,1,2,3,1
Bildung,3,5,1,5,3,5,3,3,4,2,2,2,4,4,5,4,4,1,3,5,2
Staatswissenschaften,2,3,2,2,1,3,4,2,4,2,3,2,1,3,4,3,3,1,3,3,2
Bildung,2,6,1,3,2,4,4,2,1,3,1,2,2,5,4,3,5,3,2,2,2
Bildung,3,4,1,3,3,3,4,2,3,3,3,1,3,3,4,3,4,2,2,3,2
Bildung,3,5,2,2,2,2,5,1,6,2,2,1,1,2,3,2,5,1,1,5,2
Staatswissenschaften,3,6,2,2,3,1,5,1,3,2,1,1,3,2,2,3,4,2,1,5,2
Bildung,2,3,1,2,2,3,4,2,2,2,3,2,3,3,3,3,4,2,2,3,3
Nachhaltigkeit,2,5,1,2,4,3,5,1,5,2,2,2,2,4,4,5,3,1,1,3,3
Kulturwissenschaften,3,4,2,4,2,2,3,2,4,3,2,2,3,3,2,3,2,1,2,3,2
Kulturwissenschaften,3,6,1,3,2,4,4,2,3,2,3,1,2,4,6,1,4,2,3,6,2
Nachhaltigkeit,2,3,1,1,1,4,5,2,2,3,2,2,1,3,6,1,3,1,1,3,3
Management und Technologie,5,2,1,4,2,3,6,1,3,3,2,3,2,3,2,4,6,2,1,4,2
Staatswissenschaften,2,3,1,4,3,3,5,1,4,3,1,1,3,3,2,2,4,1,2,5,2
Kulturwissenschaften,1,4,1,2,4,4,5,3,5,1,4,3,3,2,4,5,3,1,3,2,1
Bildung,2,5,2,6,2,5,6,3,3,3,2,2,4,3,5,5,4,1,1,6,5
Management und Technologie,2,3,3,3,2,3,4,2,3,2,2,2,2,2,4,5,4,1,5,5,1
Bildung,2,2,2,2,2,3,5,2,-1,1,1,1,1,1,5,5,3,1,3,1,1
Bildung,3,2,1,3,2,4,3,2,3,2,1,2,3,1,3,3,4,3,2,4,3
Staatswissenschaften,3,2,1,4,5,3,5,2,4,5,2,3,2,5,3,5,3,1,2,5,4
Nachhaltigkeit,3,4,3,2,2,3,3,2,3,2,2,2,3,2,3,2,3,2,1,5,3
Bildung,2,4,2,3,2,2,2,1,2,2,3,1,2,3,4,2,3,2,1,5,3
Management und Technologie,3,1,1,2,4,2,4,3,4,2,1,2,2,2,1,4,3,1,2,4,3
Staatswissenschaften,3,3,2,3,2,3,5,1,1,2,1,1,3,1,3,2,6,1,3,-1,2
Kulturwissenschaften,1,6,1,4,4,3,6,2,5,2,1,3,6,5,3,6,4,2,1,4,1
Management und Technologie,2,3,1,4,3,2,4,2,2,2,2,3,3,3,3,3,5,2,2,-1,2
Nachhaltigkeit,3,5,1,4,2,3,2,1,1,3,1,1,3,2,4,1,4,1,1,6,3
Bildung,3,2,1,1,1,3,4,3,3,1,1,3,1,2,5,3,2,1,1,1,3
Staatswissenschaften,5,3,4,2,2,5,6,4,3,3,2,2,2,2,3,2,2,1,3,5,3
Bildung,1,5,1,3,2,2,4,2,3,3,1,1,2,3,3,3,3,1,3,3,2
Bildung,2,3,1,3,1,2,5,2,3,2,1,1,3,1,5,3,5,1,2,3,1
Kulturwissenschaften,3,4,1,3,4,2,6,1,3,2,2,1,4,4,3,2,4,1,1,5,1
Bildung,3,4,1,3,3,2,4,2,4,2,2,2,3,2,2,4,4,2,3,3,2
Management und Technologie,2,-1,2,3,4,3,6,1,3,3,1,2,5,-1,4,3,4,3,2,6,3
Kulturwissenschaften,1,4,3,3,4,3,6,3,5,2,2,3,4,4,5,2,5,2,2,5,3
Bildung,2,5,1,3,1,6,5,2,4,1,5,2,5,6,5,3,3,4,3,6,1
Nachhaltigkeit,3,4,2,4,4,1,4,1,5,3,1,1,3,3,2,3,4,1,1,4,2
Kulturwissenschaften,3,4,1,2,5,2,6,2,5,2,1,2,2,2,2,5,3,2,2,4,2
Bildung,3,3,1,5,3,3,4,2,2,2,2,2,4,2,3,3,4,2,4,3,1
Bildung,3,3,2,2,1,3,5,3,3,2,2,3,4,2,4,3,4,2,1,5,2
Bildung,2,3,1,2,2,3,3,1,4,2,2,2,3,2,2,2,3,2,4,5,1
Staatswissenschaften,3,3,1,2,5,3,3,2,4,2,2,2,2,2,3,2,2,2,3,2,1
Nachhaltigkeit,3,3,2,2,2,1,3,1,4,3,2,2,3,2,2,2,3,1,1,2,1
Bildung,2,3,2,2,3,1,4,1,6,4,2,1,2,3,4,6,4,2,2,5,2
Management und Technologie,1,5,1,1,2,3,5,1,3,3,2,1,2,1,1,2,1,1,1,2,1
Bildung,2,4,2,6,3,2,6,1,3,3,1,2,4,4,4,5,4,1,2,4,2
Staatswissenschaften,3,1,5,1,2,2,4,2,6,1,4,2,1,2,2,2,3,2,3,6,1
Bildung,2,3,1,2,1,2,5,1,3,2,2,1,2,1,2,3,4,1,2,2,2
Bildung,3,3,3,3,2,4,5,2,4,3,1,2,3,3,4,3,3,1,2,3,3
Bildung,2,5,2,4,4,2,3,2,1,2,2,2,4,3,2,2,4,1,1,5,2
Bildung,2,4,2,1,3,3,5,1,2,3,2,3,3,5,4,3,2,1,3,5,2
Bildung,2,4,2,5,6,4,6,1,4,2,2,2,4,4,4,3,5,2,1,4,2
Bildung,3,5,1,3,2,3,1,1,2,5,1,1,4,1,6,1,3,1,1,1,2
Kulturwissenschaften,3,2,3,1,6,3,6,1,-1,5,1,2,1,6,1,5,2,2,2,1,5
Staatswissenschaften,2,3,2,1,-1,3,-1,1,3,4,1,3,2,5,2,4,3,4,2,3,5
Kulturwissenschaften,3,6,1,3,3,4,5,2,3,3,1,5,4,5,5,3,6,1,1,6,3
Management und Technologie,2,3,1,2,3,2,4,1,2,3,4,1,3,3,5,2,3,2,2,3,2
Kulturwissenschaften,4,5,1,2,4,4,3,2,4,3,2,3,2,4,2,2,3,2,1,5,2
Bildung,1,4,1,2,4,2,2,1,3,3,1,1,3,4,2,3,5,1,2,5,2
Staatswissenschaften,2,3,1,1,2,4,3,1,3,3,2,1,1,1,3,2,2,1,1,5,2
Bildung,4,4,1,5,3,5,3,2,1,4,1,1,6,4,6,2,6,2,1,1,6
Management und Technologie,2,1,2,3,5,3,6,3,5,1,2,4,2,3,1,3,2,2,3,6,2
Staatswissenschaften,4,3,1,3,3,3,6,1,3,2,1,3,2,2,2,3,4,1,1,5,1
Bildung,2,3,2,4,2,3,4,3,4,1,2,1,3,1,3,2,3,1,3,5,2
Staatswissenschaften,3,3,1,5,2,4,2,1,4,1,1,2,3,2,4,5,2,1,2,5,3
Bildung,2,5,2,5,2,3,5,2,4,2,2,2,5,3,4,2,4,1,2,2,1
Bildung,3,6,1,3,2,4,-1,1,3,2,1,1,5,2,4,5,5,1,2,2,3
Management und Technologie,2,1,2,2,1,3,3,2,3,2,1,1,1,1,3,2,2,1,1,3,2
Staatswissenschaften,2,2,4,1,1,2,3,2,1,3,3,2,2,3,4,3,1,2,4,2,2
Nachhaltigkeit,2,3,1,2,3,1,3,2,4,2,2,1,2,1,3,2,4,2,1,4,3
Staatswissenschaften,5,3,1,6,2,1,3,2,2,1,1,1,2,2,1,3,3,1,4,1,1
Kulturwissenschaften,2,5,1,2,4,3,6,2,3,2,2,2,4,2,2,4,5,2,1,5,2
Kulturwissenschaften,4,6,1,4,3,4,5,3,4,2,4,1,2,5,5,3,5,1,1,3,2
Bildung,3,3,3,1,5,6,2,3,4,4,1,3,4,3,2,1,2,3,2,6,1
Nachhaltigkeit,2,5,1,3,3,2,4,2,6,2,4,3,4,1,3,5,4,1,2,5,2
Bildung,2,4,1,3,4,1,3,1,2,2,1,2,3,3,1,6,2,1,1,1,2
Bildung,2,4,1,4,3,2,4,1,3,2,1,2,4,3,2,3,4,2,3,4,2
Bildung,2,4,1,2,4,3,5,1,5,1,1,2,3,3,2,5,3,1,1,4,2
Staatswissenschaften,1,5,1,1,1,5,4,3,2,5,1,2,2,1,6,3,4,1,2,5,2
Kulturwissenschaften,2,2,1,2,5,1,5,1,4,1,1,1,1,1,1,1,1,1,2,4,1
Management und Technologie,2,3,1,3,4,2,3,1,5,3,2,1,3,4,2,4,5,2,1,5,2
Management und Technologie,3,2,1,2,1,3,3,3,2,3,3,3,2,2,5,4,3,1,2,5,2
Staatswissenschaften,2,3,1,2,4,2,5,2,5,3,1,1,1,2,2,6,4,2,1,4,2
Staatswissenschaften,2,2,2,3,2,3,3,2,4,2,2,2,3,1,3,4,3,2,3,2,2
Management und Technologie,1,3,1,2,3,1,3,2,4,2,2,2,2,3,2,3,4,1,1,4,2
Kulturwissenschaften,2,5,1,4,3,2,5,1,4,3,2,1,3,3,2,4,4,1,1,5,3
Kulturwissenschaften,2,4,1,1,2,3,4,2,4,2,3,4,2,4,2,3,4,3,3,4,2
Management und Technologie,3,1,2,4,4,4,2,2,1,5,1,2,3,5,5,4,3,1,5,1,3
Bildung,3,3,1,2,4,1,5,2,3,1,2,1,2,3,2,4,3,1,2,2,1
Management und Technologie,2,2,1,2,3,2,5,2,3,1,2,2,2,2,2,4,5,2,3,2,2
Bildung,3,4,1,3,2,2,3,1,4,2,1,2,2,2,2,3,2,1,3,3,1
Nachhaltigkeit,2,1,1,3,1,3,3,2,2,3,1,1,2,1,5,1,1,1,3,3,3
Kulturwissenschaften,2,3,2,2,2,2,3,2,3,2,2,1,2,3,3,2,3,1,2,3,1
Management und Technologie,1,6,1,6,4,2,3,1,4,4,2,1,6,5,1,6,6,1,1,4,3
Staatswissenschaften,2,3,1,3,6,1,-1,2,4,4,1,1,2,4,2,6,4,1,1,6,4
Staatswissenschaften,1,4,1,4,4,1,6,2,-1,1,2,1,3,1,3,3,2,2,1,-1,1
Management und Technologie,3,3,1,1,2,3,5,2,5,2,2,2,1,2,2,4,2,1,2,3,3
Bildung,1,6,2,3,4,1,6,2,4,2,1,2,3,3,1,3,6,1,2,3,1
Nachhaltigkeit,1,6,1,2,4,2,5,2,4,2,1,3,2,2,1,3,3,1,1,3,1
Bildung,1,3,1,2,2,2,3,2,5,1,1,1,2,1,3,4,2,1,1,2,1
Nachhaltigkeit,6,2,6,4,3,5,2,6,3,5,6,5,3,3,5,2,3,6,6,2,3
Staatswissenschaften,4,3,1,2,3,3,3,2,2,2,2,2,3,3,3,-1,1,1,2,1,2
Management und Technologie,4,3,1,2,2,5,3,3,3,2,2,3,2,4,5,3,3,1,2,5,3
Staatswissenschaften,2,5,1,6,4,3,6,1,3,2,1,1,6,1,3,4,6,1,1,3,1
Management und Technologie,3,2,1,4,3,3,4,2,2,3,2,1,5,1,4,1,3,2,3,4,2
Management und Technologie,2,2,2,4,3,2,5,2,4,4,1,1,3,2,2,3,4,1,2,2,2
Bildung,2,3,2,1,3,1,4,2,3,2,2,1,2,1,2,3,5,1,1,1,2
Bildung,3,4,1,3,2,4,3,3,3,3,3,2,4,2,3,2,3,2,2,3,2
Bildung,2,5,3,3,1,1,2,2,1,5,2,1,4,1,5,3,4,1,1,1,5
Management und Technologie,2,2,2,3,4,3,3,2,3,4,2,3,3,2,3,3,3,2,2,3,2
Kulturwissenschaften,2,5,1,4,2,4,6,1,3,3,1,2,4,3,4,3,4,1,2,6,2
Bildung,3,4,2,3,2,2,-1,1,2,1,1,1,2,1,3,2,4,3,4,4,2
Kulturwissenschaften,6,4,6,5,4,3,4,3,5,5,5,5,4,3,2,5,4,6,5,1,4
Management und Technologie,2,3,1,2,1,3,3,2,3,2,2,1,2,2,3,3,3,1,3,3,2
Kulturwissenschaften,1,3,1,1,3,1,5,2,5,3,1,1,1,2,2,2,2,1,1,4,3
Management und Technologie,2,5,1,2,3,2,3,2,3,2,1,2,3,3,2,3,3,2,3,1,2
Nachhaltigkeit,2,6,1,4,3,2,3,1,2,3,1,1,4,2,3,2,4,1,1,5,3
Kulturwissenschaften,2,4,1,4,2,2,5,1,4,2,3,2,5,3,2,3,5,2,2,6,1
Kulturwissenschaften,2,-1,2,3,1,5,3,1,4,3,4,2,1,2,5,1,2,1,2,1,3
Management und Technologie,3,2,2,2,3,4,2,3,2,3,2,3,2,2,2,2,4,2,4,2,2
Bildung,1,3,1,2,4,1,4,2,5,1,1,2,3,2,1,5,3,1,1,3,1
Staatswissenschaften,3,4,2,4,5,3,5,2,2,3,1,1,3,5,3,4,3,2,2,2,3
Kulturwissenschaften,2,-1,1,4,2,1,6,3,4,2,1,2,3,3,2,3,3,1,2,2,1
Kulturwissenschaften,2,5,1,2,4,2,-1,2,5,1,1,2,1,3,1,6,3,1,1,2,2
Management und Technologie,1,2,1,3,2,1,4,3,3,2,1,2,1,3,1,4,4,1,2,3,2
Bildung,4,2,1,3,1,2,2,1,3,2,2,2,1,1,5,3,4,1,1,2,1
Kulturwissenschaften,1,4,1,1,1,3,4,4,4,1,4,1,1,1,4,5,4,2,4,1,1
Bildung,2,2,1,2,2,3,2,2,3,2,1,1,2,3,1,2,4,1,2,3,2
Nachhaltigkeit,1,4,1,5,3,3,5,1,4,1,2,2,3,2,2,2,3,3,3,2,1
Management und Technologie,3,4,1,3,2,2,3,1,2,2,1,1,3,2,2,2,3,1,1,2,2
Nachhaltigkeit,3,5,1,3,4,2,5,2,5,3,1,1,3,5,1,4,4,1,1,4,2
Nachhaltigkeit,3,4,1,4,2,3,5,1,3,2,2,2,3,3,2,3,4,1,1,4,2
Nachhaltigkeit,3,5,1,2,2,3,2,2,4,2,1,1,2,1,4,3,4,1,2,4,2
Bildung,2,6,2,4,3,3,5,2,2,1,2,1,3,3,-1,3,5,2,3,2,1
Kulturwissenschaften,2,5,2,1,3,1,4,1,5,2,2,1,4,4,1,2,3,1,2,5,1
Management und Technologie,3,1,1,3,1,3,5,3,5,2,1,1,2,1,1,2,1,1,2,3,2
Staatswissenschaften,3,2,1,3,3,5,6,3,4,1,2,4,4,2,3,3,3,3,3,5,2
Management und Technologie,1,2,1,5,4,2,5,5,3,2,1,1,2,1,1,3,3,2,1,1,4
Management und Technologie,4,1,3,1,1,6,2,5,1,4,2,2,4,1,3,2,2,2,4,2,5
Nachhaltigkeit,2,3,1,3,3,2,5,1,3,2,1,2,3,3,1,4,6,1,2,3,1
Staatswissenschaften,2,5,1,2,6,2,5,2,3,2,1,1,1,6,2,3,5,1,1,-1,2
Management und Technologie,5,2,1,3,3,3,2,1,1,2,2,2,2,2,4,2,2,1,2,2,3
Bildung,6,3,5,6,3,5,1,2,1,5,5,6,4,3,4,2,5,6,5,2,4
Kulturwissenschaften,2,-1,1,3,4,2,4,2,3,2,2,2,5,4,2,1,-1,2,2,-1,1
Staatswissenschaften,2,4,1,4,2,2,-1,2,3,3,2,3,4,4,2,2,4,2,2,5,1
Management und Technologie,2,4,1,3,4,1,2,1,3,3,1,1,4,5,2,1,2,1,3,2,2
Bildung,4,-1,1,5,4,2,6,3,5,2,2,2,3,5,3,3,4,1,2,6,2
Management und Technologie,1,2,1,2,2,1,2,2,2,1,1,1,1,1,1,2,2,1,1,2,1
Bildung,2,4,1,3,2,3,4,3,4,2,2,2,5,2,3,3,4,2,2,4,2
Bildung,2,-1,2,6,3,2,-1,4,6,3,1,1,5,3,2,-1,6,1,1,6,1
Management und Technologie,1,1,2,2,3,2,4,1,4,1,2,2,2,1,2,2,2,1,1,2,3
Staatswissenschaften,2,3,1,4,2,3,6,2,4,2,1,2,3,2,3,6,3,3,1,5,1
Nachhaltigkeit,2,5,2,3,5,1,5,2,5,3,3,3,5,5,2,5,4,2,2,4,2
Bildung,3,4,1,5,2,5,3,2,1,1,1,2,3,3,4,1,5,1,1,6,1
Management und Technologie,3,3,1,2,2,3,4,1,2,2,1,1,2,2,3,2,3,2,2,3,3
Bildung,2,5,1,1,2,1,2,1,3,1,2,1,3,3,2,2,3,2,1,5,2
Staatswissenschaften,4,4,1,3,2,4,2,1,4,4,1,2,2,2,4,1,4,2,1,3,3
Nachhaltigkeit,2,3,1,3,3,1,4,2,2,3,1,1,3,2,1,2,3,1,1,4,3
Nachhaltigkeit,2,5,1,3,4,2,4,2,5,2,1,1,2,2,2,5,4,1,1,4,1
Staatswissenschaften,2,4,1,3,3,2,5,1,5,1,1,3,2,2,3,2,3,1,1,6,2
Bildung,4,3,1,3,3,3,2,4,3,2,2,2,4,1,3,1,2,1,1,1,2
Staatswissenschaften,2,5,1,3,5,1,2,1,2,2,1,2,2,1,1,3,2,1,1,2,2
Staatswissenschaften,2,4,1,3,2,3,3,1,4,3,1,2,3,4,4,1,3,2,2,5,3
Management und Technologie,3,4,1,5,2,3,1,3,3,3,1,2,4,1,2,3,4,1,3,2,3
Bildung,2,3,4,4,5,3,2,3,2,2,1,2,4,3,2,5,3,1,1,1,2
Bildung,2,5,1,3,3,3,6,3,4,1,2,2,3,5,3,4,3,1,2,6,3
Kulturwissenschaften,3,5,1,3,4,3,4,2,3,3,2,2,3,2,2,3,4,1,1,4,2
Bildung,2,4,1,2,1,2,-1,2,4,1,3,2,3,2,2,4,3,1,1,3,1
Bildung,1,3,2,3,2,4,3,2,2,2,2,2,3,2,4,1,4,1,2,3,1
Bildung,2,3,2,3,2,3,3,1,2,2,1,1,2,1,2,1,2,1,1,4,2
Bildung,3,5,1,3,2,3,2,2,3,3,1,1,2,2,4,2,3,1,2,5,2
Kulturwissenschaften,2,2,1,2,2,5,5,4,3,3,1,2,3,2,1,4,4,2,2,3,1
Bildung,1,4,1,5,3,2,3,1,1,1,2,1,5,2,2,1,4,1,1,2,1
Nachhaltigkeit,1,5,1,3,3,3,6,2,5,2,2,2,4,4,3,5,2,2,2,4,2
Kulturwissenschaften,1,3,1,1,3,3,3,2,3,1,4,1,1,2,3,1,3,3,2,5,1
Staatswissenschaften,2,3,1,2,4,1,5,3,5,2,1,1,2,1,1,3,2,1,1,5,1
Management und Technologie,3,5,1,3,3,3,-1,3,3,2,1,2,5,5,2,2,-1,1,2,-1,2
Bildung,2,5,1,2,2,1,3,2,4,2,1,1,1,1,2,3,3,1,1,4,3
Staatswissenschaften,3,2,2,2,2,3,3,4,2,1,1,3,2,1,3,2,2,1,2,2,1
Nachhaltigkeit,1,3,1,5,3,1,-1,1,2,3,1,1,4,2,1,1,-1,2,1,4,2
Bildung,2,5,1,4,5,2,5,2,5,3,2,2,5,5,3,5,5,2,2,-1,2
Management und Technologie,2,2,2,2,2,2,3,1,-1,2,1,2,2,2,2,3,4,2,2,3,2
Management und Technologie,1,3,1,4,5,1,5,2,4,2,1,2,2,3,1,3,2,1,5,5,3
Management und Technologie,1,6,1,3,3,1,4,1,4,2,2,1,3,3,2,4,4,1,1,5,1
Management und Technologie,1,5,1,4,4,1,5,2,3,4,1,1,5,1,1,4,4,2,1,5,2
Nachhaltigkeit,3,-1,1,6,5,2,-1,2,1,3,2,3,6,3,1,1,-1,2,1,-1,2
Kulturwissenschaften,2,6,1,3,2,2,-1,2,3,1,2,2,3,6,3,3,4,1,1,6,3
Bildung,3,3,2,2,3,3,6,3,4,3,2,2,3,3,2,3,4,1,2,3,1
Management und Technologie,3,2,2,4,2,2,5,1,3,2,2,1,3,1,2,3,5,1,1,2,2
Nachhaltigkeit,2,6,1,3,3,2,3,3,4,3,4,2,3,2,1,4,3,3,3,4,3
Nachhaltigkeit,2,6,1,3,4,3,5,2,4,4,2,1,2,3,2,5,5,1,1,4,2
Kulturwissenschaften,2,3,1,5,3,2,6,1,4,2,1,2,4,4,3,5,5,2,1,6,3
Management und Technologie,2,5,1,2,4,1,4,2,3,1,1,1,2,1,1,3,3,1,1,2,1
Staatswissenschaften,1,2,1,2,3,1,2,1,2,3,1,2,1,2,3,1,2,1,2,3,1
Nachhaltigkeit,2,3,1,3,4,3,5,2,2,2,3,2,3,2,4,1,5,2,2,5,2
Staatswissenschaften,2,2,1,1,3,1,5,1,-1,1,1,3,1,1,3,-1,4,1,1,-1,1
Bildung,1,3,2,1,3,2,6,1,5,1,3,1,1,2,3,2,4,1,1,-1,1
Staatswissenschaften,4,3,1,2,4,4,5,3,5,2,2,2,1,3,3,5,2,2,3,3,2
Bildung,3,6,1,3,4,5,6,2,3,3,3,2,4,2,6,3,6,2,1,-1,2
Staatswissenschaften,3,4,1,5,2,2,5,1,3,2,2,1,3,1,2,1,3,1,1,5,2
Bildung,3,5,1,5,4,3,3,1,1,2,1,1,4,2,3,2,3,1,3,6,4
Kulturwissenschaften,3,6,1,3,1,3,5,2,1,1,3,1,3,5,3,3,3,1,1,-1,3
Kulturwissenschaften,1,6,1,3,4,2,6,1,5,2,1,1,4,1,2,5,6,1,2,3,1
Management und Technologie,3,3,1,2,4,3,5,1,4,2,3,2,2,3,4,2,3,3,1,4,2
Bildung,3,4,1,3,3,3,4,2,3,2,1,2,3,2,3,3,4,1,2,3,2
Staatswissenschaften,2,2,1,3,2,2,4,3,3,2,1,2,2,1,2,4,3,1,2,3,2
Staatswissenschaften,3,2,2,5,2,4,2,3,1,3,2,2,3,3,5,3,4,2,3,5,3
Kulturwissenschaften,2,6,1,3,3,4,5,2,5,2,3,2,2,3,2,4,6,1,3,6,1
Kulturwissenschaften,2,5,1,3,3,2,5,1,5,2,1,2,5,4,2,3,5,2,1,4,2
Kulturwissenschaften,1,4,1,-1,2,5,-1,3,5,1,2,2,3,-1,3,-1,6,2,2,-1,6
Kulturwissenschaften,2,6,1,5,4,1,6,1,2,2,1,2,4,3,1,5,3,1,1,5,2
Management und Technologie,2,4,1,2,2,1,5,1,2,3,1,2,3,2,1,2,4,1,2,2,1
Kulturwissenschaften,2,4,1,3,2,3,3,2,5,3,2,3,4,1,3,4,4,1,2,5,1
Management und Technologie,2,3,2,5,3,3,4,2,3,3,1,3,3,5,3,4,3,2,3,3,2
Nachhaltigkeit,3,2,2,1,2,3,5,3,5,2,2,1,1,2,5,2,3,1,3,4,5
Staatswissenschaften,2,3,1,2,2,1,4,3,4,3,1,1,1,2,2,3,4,1,1,5,1
Management und Technologie,4,3,1,4,2,2,3,2,4,4,3,2,3,2,1,2,3,3,2,2,2
Management und Technologie,3,3,1,2,2,4,3,2,3,3,2,2,1,3,3,3,3,1,3,3,1
Nachhaltigkeit,3,5,1,2,2,1,4,1,2,2,1,2,4,1,1,4,4,1,1,2,2
Bildung,3,3,1,2,2,2,3,2,3,3,2,2,2,1,2,2,3,1,2,2,2
Kulturwissenschaften,3,4,1,3,2,4,5,2,2,3,3,2,3,2,5,2,3,1,1,5,2
Kulturwissenschaften,3,2,2,2,3,1,3,1,2,3,1,1,2,3,3,2,2,2,3,2,2
Kulturwissenschaften,1,5,1,4,2,6,5,1,4,3,2,2,5,4,4,4,3,2,1,4,3
Management und Technologie,1,4,1,2,5,1,4,2,3,1,1,1,2,3,1,1,5,2,2,1,1
Kulturwissenschaften,1,3,1,4,3,2,-1,4,4,1,3,3,3,6,2,6,4,2,3,-1,2
Bildung,2,1,1,1,2,3,3,1,3,1,1,2,2,1,1,1,1,1,2,3,1
Kulturwissenschaften,2,3,1,2,4,2,6,2,3,3,2,2,3,2,2,3,2,1,3,3,3
Management und Technologie,2,4,1,1,6,3,5,3,6,6,1,2,1,5,2,5,2,1,4,3,3
Management und Technologie,3,4,1,2,3,3,5,1,1,2,2,2,3,2,4,3,4,1,2,5,2
Staatswissenschaften,3,2,3,3,2,4,3,2,4,3,2,3,2,2,5,4,3,1,2,2,4
Bildung,2,2,1,3,2,2,5,2,3,3,2,2,3,1,2,4,5,1,5,6,2
Nachhaltigkeit,2,4,1,3,5,1,5,1,4,2,1,2,3,3,1,2,3,2,1,5,1
Nachhaltigkeit,1,3,1,1,3,2,4,2,3,3,1,2,2,2,3,2,5,2,2,5,3
Staatswissenschaften,5,3,2,2,2,4,4,2,3,2,3,4,2,3,4,2,3,2,2,3,3
Kulturwissenschaften,2,4,1,2,3,3,3,3,3,1,1,2,2,1,2,2,3,1,2,4,1
Nachhaltigkeit,2,5,2,2,5,2,5,2,3,3,2,2,3,5,2,2,4,3,2,6,3
Nachhaltigkeit,2,5,1,4,3,1,4,1,4,2,2,1,3,2,1,3,4,1,1,4,1
Management und Technologie,3,1,1,2,3,2,-1,2,2,1,1,3,2,2,1,5,3,2,1,3,2
Bildung,1,6,1,6,4,2,3,2,3,3,2,3,6,2,2,2,3,3,1,6,1
Nachhaltigkeit,2,4,2,4,5,1,5,3,5,2,1,2,3,6,2,5,4,2,1,6,3
Nachhaltigkeit,3,4,1,5,2,4,4,1,2,5,2,2,3,2,5,1,4,2,1,4,2
Staatswissenschaften,2,5,1,2,2,4,4,2,5,1,1,2,2,2,5,4,2,2,1,3,2
Staatswissenschaften,2,3,1,2,3,2,3,1,4,1,1,2,3,1,3,2,3,1,1,4,1
Staatswissenschaften,2,5,1,4,3,3,4,1,3,2,1,1,5,3,2,2,3,2,2,5,2
Management und Technologie,3,3,2,3,3,3,5,2,3,3,3,3,3,3,4,3,3,2,2,2,3
Nachhaltigkeit,2,6,1,3,2,5,3,2,1,2,2,1,2,2,3,2,4,1,1,5,2
Management und Technologie,3,4,1,5,5,1,-1,1,3,4,1,1,3,1,2,5,6,1,4,1,1
Management und Technologie,2,3,3,5,4,4,2,3,4,2,4,5,1,2,3,2,2,2,2,4,4
Staatswissenschaften,3,4,1,4,3,2,4,5,5,2,1,3,2,4,2,6,2,1,2,4,1
Management und Technologie,2,2,3,2,2,2,4,3,4,2,1,2,1,2,2,3,2,1,3,4,3
Management und Technologie,2,2,3,4,4,2,3,2,2,1,2,1,1,3,1,3,3,1,3,5,2
Staatswissenschaften,1,3,1,2,3,1,4,1,5,2,1,1,1,2,1,2,3,2,1,5,2
Management und Technologie,3,3,2,1,3,1,4,2,3,2,2,3,2,3,2,3,2,2,2,2,1
Management und Technologie,2,6,4,5,5,4,-1,2,2,2,2,2,3,6,5,6,5,3,3,3,1
Kulturwissenschaften,3,5,2,3,5,3,5,2,3,3,3,2,5,-1,2,4,4,2,1,5,3
Staatswissenschaften,1,2,1,3,3,2,5,2,3,1,1,2,2,2,3,3,4,2,1,2,2
Management und Technologie,3,4,1,5,2,1,4,1,3,2,1,1,2,2,1,2,4,1,1,3,1
Kulturwissenschaften,3,4,1,2,3,4,3,3,3,2,3,3,3,3,4,2,3,1,2,2,1
Nachhaltigkeit,3,6,1,3,1,3,3,1,1,3,1,1,1,2,5,2,3,1,1,3,4
Management und Technologie,2,4,1,3,5,2,6,1,2,2,1,1,2,3,1,4,5,1,1,4,3
Management und Technologie,2,3,2,2,3,2,4,2,5,1,2,3,2,3,3,3,2,2,3,3,1
Staatswissenschaften,2,3,2,6,1,2,6,4,4,3,1,2,5,2,4,6,4,2,3,4,4
Kulturwissenschaften,2,5,1,2,3,1,5,3,6,1,2,2,2,2,2,3,4,1,1,5,1
Management und Technologie,2,2,1,3,5,2,4,1,6,2,1,3,2,3,2,3,2,1,3,5,1
Kulturwissenschaften,2,6,1,3,2,3,5,1,2,2,1,2,4,3,5,4,5,1,2,3,3
Kulturwissenschaften,4,5,1,5,6,2,6,5,2,2,3,4,5,4,2,3,5,2,2,6,2
Bildung,2,2,3,1,2,4,5,5,4,1,1,2,2,1,2,5,2,2,2,3,2
Staatswissenschaften,4,6,1,3,5,2,5,1,2,4,1,1,4,4,2,5,4,1,1,5,2
Staatswissenschaften,2,3,1,4,3,3,4,2,3,2,3,2,2,1,3,3,5,2,1,5,3
Bildung,1,4,1,3,2,4,3,1,2,2,2,1,3,3,3,2,3,1,1,4,3
Bildung,2,-1,1,6,5,4,3,1,2,4,2,1,4,3,4,4,5,2,2,3,3
Bildung,2,3,1,3,1,4,3,2,1,2,5,1,2,2,4,4,3,1,3,2,2
Bildung,3,5,1,3,2,2,2,1,3,3,3,1,3,2,3,2,2,1,1,3,1
Kulturwissenschaften,1,4,1,3,2,4,6,2,3,3,2,2,3,1,3,2,5,1,1,5,4
Kulturwissenschaften,2,5,1,4,3,2,3,1,3,2,1,2,4,3,3,3,4,1,1,5,2
Staatswissenschaften,4,3,2,2,2,4,3,2,3,3,1,2,2,2,4,3,3,1,3,4,3
Staatswissenschaften,1,1,1,1,1,-1,3,1,4,1,1,2,1,-1,-1,2,1,1,3,1,2
Kulturwissenschaften,2,-1,1,-1,-1,1,5,2,5,2,1,1,6,6,1,3,5,1,1,-1,3
Staatswissenschaften,4,1,1,3,2,4,5,1,3,1,1,2,1,3,3,2,4,1,4,3,1
Nachhaltigkeit,4,6,1,2,4,3,5,3,4,2,2,1,4,4,3,4,3,1,1,6,2
Kulturwissenschaften,2,4,1,2,3,3,6,2,4,2,1,2,3,2,2,3,3,2,1,4,2
Staatswissenschaften,2,3,1,2,2,1,3,1,3,1,2,1,1,1,2,2,1,1,1,2,1
Staatswissenschaften,3,2,2,2,2,4,3,2,2,2,2,3,2,1,3,3,3,1,2,2,3
Bildung,2,4,1,3,2,2,2,2,3,2,2,2,2,1,2,2,2,1,1,2,1
Kulturwissenschaften,3,6,1,4,2,1,3,3,5,1,1,1,2,3,2,4,6,1,1,6,1
Management und Technologie,3,1,4,4,2,3,-1,1,4,3,2,2,2,2,2,4,3,1,2,2,3
Bildung,3,2,4,1,4,-1,-1,3,-1,1,1,2,3,3,-1,4,5,1,3,1,1
Bildung,2,3,1,3,2,2,4,1,5,1,1,2,3,3,2,4,3,2,2,3,2
Bildung,1,4,1,4,4,2,4,1,3,1,2,2,3,2,2,5,4,2,2,3,1
Staatswissenschaften,3,5,1,5,3,2,4,1,3,3,1,1,3,2,1,3,4,1,1,3,2
Nachhaltigkeit,1,6,1,4,4,3,4,3,5,3,1,2,3,4,3,5,5,1,1,4,2
Management und Technologie,1,2,1,1,2,1,2,1,5,2,1,2,1,1,2,5,1,1,2,1,1
Staatswissenschaften,2,3,1,5,2,2,4,1,2,3,1,2,3,1,3,3,3,1,3,4,3
Staatswissenschaften,1,5,6,1,1,2,1,1,2,4,2,2,1,1,4,1,1,1,1,1,3
Staatswissenschaften,3,4,1,4,4,3,4,3,4,3,2,2,4,3,2,3,4,2,2,2,3
Staatswissenschaften,2,-1,1,3,3,1,-1,1,2,5,1,1,5,2,2,6,5,1,1,4,4
Management und Technologie,3,5,1,3,5,2,4,2,5,4,2,2,3,3,2,4,2,1,2,4,3
Nachhaltigkeit,3,5,1,3,4,1,3,3,4,3,2,1,3,3,3,4,3,1,1,5,2
Staatswissenschaften,1,5,1,2,4,1,5,1,6,2,1,2,3,2,2,6,3,2,3,3,3
Kulturwissenschaften,2,3,1,2,2,1,3,1,3,1,1,2,2,3,4,1,3,1,1,3,2
Bildung,3,2,1,1,2,2,3,2,4,1,2,2,2,2,2,2,2,2,3,4,1
Bildung,1,4,1,3,2,1,4,1,5,1,2,1,3,2,2,4,4,1,2,5,1
Nachhaltigkeit,2,5,1,5,4,2,4,2,3,3,2,1,3,3,2,3,3,1,2,5,3
Bildung,2,3,2,3,4,3,4,3,3,2,2,1,2,3,4,3,4,2,1,4,3
Management und Technologie,1,2,4,4,1,5,2,6,2,3,1,2,2,1,4,1,2,1,2,1,2
Bildung,6,4,6,5,5,4,3,5,4,3,4,6,6,5,5,4,4,6,5,4,5
Bildung,3,4,1,6,4,3,5,1,2,1,1,1,5,3,2,2,6,1,1,4,2
Bildung,2,4,1,3,4,4,-1,2,4,1,1,1,2,3,4,4,6,1,1,4,3
Kulturwissenschaften,1,3,1,3,2,2,5,2,3,2,1,1,2,3,2,2,3,2,2,5,2
Bildung,2,3,1,4,2,2,6,2,3,1,1,2,2,2,4,5,3,2,1,-1,2
Management und Technologie,3,3,2,5,4,4,-1,2,4,2,1,3,3,2,3,5,3,1,2,4,1
Kulturwissenschaften,2,1,1,4,1,1,3,3,2,5,2,3,2,1,3,2,4,1,2,2,5
Kulturwissenschaften,1,4,2,2,2,2,3,1,4,2,1,2,2,1,2,1,2,1,1,2,2
Management und Technologie,3,3,1,6,3,3,3,2,1,3,2,2,5,4,3,2,4,1,2,3,3
Staatswissenschaften,3,2,1,4,2,3,6,3,4,1,1,2,3,2,2,4,6,1,3,2,2
Kulturwissenschaften,2,6,2,-1,3,3,3,1,3,3,3,2,4,3,3,2,4,2,1,4,4
Management und Technologie,4,2,2,3,3,1,3,2,3,1,1,1,2,1,2,2,2,1,2,2,1
Bildung,1,3,2,2,2,2,3,3,4,2,2,2,4,3,2,3,3,2,2,2,2
Staatswissenschaften,4,6,1,4,4,1,5,1,3,2,2,2,4,3,1,4,3,1,2,5,3
Kulturwissenschaften,2,2,1,2,1,3,2,1,2,3,2,1,2,1,4,2,-1,1,1,2,3
Management und Technologie,3,3,1,3,2,2,-1,1,2,1,1,1,5,1,4,1,6,1,1,2,2
Management und Technologie,2,2,1,1,4,4,-1,4,-1,1,1,4,1,1,4,-1,1,2,1,4,2
Management und Technologie,2,4,1,4,1,2,3,1,3,4,1,2,3,2,2,2,2,1,2,4,1
Kulturwissenschaften,2,5,2,2,3,1,3,2,5,1,2,1,2,1,2,5,3,3,1,5,1
Staatswissenschaften,2,3,2,1,1,3,3,1,2,2,2,1,1,1,3,1,2,2,2,2,1
Management und Technologie,3,5,1,4,4,3,2,1,1,4,1,2,2,3,3,2,4,1,4,2,1
Management und Technologie,3,1,2,1,1,2,6,2,4,2,1,2,1,1,2,1,3,1,3,5,2
Nachhaltigkeit,2,4,1,3,2,2,3,1,2,2,2,2,2,2,2,2,3,2,2,5,3
Nachhaltigkeit,3,4,1,2,4,1,5,1,3,2,3,1,1,4,3,2,2,1,1,3,3
Bildung,3,4,1,2,2,2,5,1,2,2,1,3,3,2,2,3,3,2,1,1,2
Management und Technologie,2,1,2,2,3,2,6,2,4,2,3,2,2,2,1,4,3,3,3,3,3
Staatswissenschaften,3,3,1,4,4,3,5,2,2,1,2,3,3,3,3,4,3,2,3,3,1
Management und Technologie,3,2,2,2,4,1,5,2,4,1,2,3,2,2,1,4,3,1,2,4,2
Staatswissenschaften,3,1,4,1,3,4,-1,3,3,2,1,5,1,1,5,-1,1,1,5,-1,5
Nachhaltigkeit,3,2,1,1,1,2,4,1,4,2,2,1,1,3,3,2,1,1,1,3,2
Bildung,2,3,1,4,2,2,3,1,3,1,1,1,2,3,2,3,3,1,1,5,1
Management und Technologie,2,4,1,3,6,2,-1,2,3,2,3,4,3,4,4,2,5,2,3,6,2
Management und Technologie,1,2,1,3,2,2,2,1,3,1,2,1,1,1,3,2,2,1,1,4,1
Bildung,2,3,1,1,1,3,2,3,2,2,3,2,3,2,1,1,4,2,2,3,2
Bildung,2,3,1,3,3,3,-1,1,5,1,1,2,3,2,2,5,3,2,2,6,2
Bildung,2,4,1,4,2,1,3,1,4,2,1,1,3,2,1,5,4,2,1,4,2
Staatswissenschaften,4,3,1,3,2,4,4,2,2,3,2,2,2,2,3,2,5,1,2,4,3
Bildung,5,4,1,6,1,5,3,3,4,3,3,4,4,3,6,5,4,1,3,4,3
Staatswissenschaften,1,1,1,4,2,4,-1,2,2,1,2,2,3,1,4,6,2,1,1,-1,2
Bildung,2,4,2,1,2,5,5,4,5,2,3,2,2,5,3,2,2,2,2,3,3
Bildung,4,2,1,3,1,3,5,3,3,1,1,1,3,3,3,1,3,1,3,3,3
Nachhaltigkeit,2,5,1,4,3,2,4,1,3,4,2,3,2,3,4,4,3,1,1,6,4
Kulturwissenschaften,3,3,2,2,1,1,2,2,4,1,1,2,2,1,2,2,2,2,1,5,1
Nachhaltigkeit,2,4,1,4,3,3,3,1,1,4,2,2,4,3,4,4,4,1,1,4,2
Management und Technologie,1,1,2,1,1,4,4,1,5,1,1,1,1,1,1,1,1,1,1,3,1
Management und Technologie,2,3,1,5,1,3,5,5,2,1,4,2,1,3,1,5,5,1,1,1,2
Nachhaltigkeit,3,4,1,3,2,2,4,1,4,3,2,1,3,2,5,4,3,2,2,4,2
Nachhaltigkeit,1,5,1,3,2,1,4,1,5,2,3,1,4,3,2,2,4,1,1,5,1
Nachhaltigkeit,1,5,1,5,4,2,5,2,4,5,2,4,4,5,4,4,5,3,1,6,2
Nachhaltigkeit,4,4,1,1,2,4,4,2,2,3,1,3,2,-1,2,2,2,2,1,4,2
Nachhaltigkeit,2,6,1,3,4,3,5,4,4,5,2,3,4,3,2,4,5,3,1,6,2
Nachhaltigkeit,2,6,1,2,5,2,5,1,4,4,2,1,2,5,1,2,5,2,1,3,2
Nachhaltigkeit,1,5,1,4,3,2,3,1,1,3,1,1,4,4,3,2,3,2,1,5,4
Nachhaltigkeit,1,5,1,5,1,1,3,2,1,2,1,1,2,1,2,1,5,1,1,1,2
Nachhaltigkeit,2,4,1,3,2,2,2,2,2,2,2,1,2,2,3,2,3,1,1,2,2
Nachhaltigkeit,3,2,2,2,3,2,1,2,2,3,3,3,3,2,3,2,3,2,2,2,2
Kulturwissenschaften,4,5,1,4,3,4,5,2,6,2,2,2,3,3,4,3,1,5,5,2,4
Nachhaltigkeit,1,3,1,2,4,3,3,1,3,3,2,1,2,4,2,5,3,3,2,4,4
Nachhaltigkeit,1,4,1,2,2,1,3,1,6,2,1,1,3,-1,1,3,1,1,2,1,1
Nachhaltigkeit,2,4,1,2,3,2,2,1,3,3,2,1,2,2,2,2,3,2,1,3,2
Staatswissenschaften,2,4,1,2,3,3,6,1,4,3,4,1,2,2,2,6,5,1,1,6,3
Kulturwissenschaften,4,3,1,2,1,3,2,2,5,3,1,1,2,3,6,2,5,1,1,3,2
Management und Technologie,4,4,3,5,4,3,4,6,3,4,6,6,6,4,3,4,5,3,3,3,3
Nachhaltigkeit,2,5,1,4,3,5,5,1,3,4,3,1,5,3,3,2,2,1,2,2,3
Staatswissenschaften,1,1,2,1,1,3,1,1,1,1,1,1,1,1,1,1,2,1,1,1,1
Management und Technologie,4,4,1,3,2,4,4,2,4,4,3,3,3,3,5,1,3,1,1,3,3
Kulturwissenschaften,3,5,1,5,2,3,4,2,2,5,3,1,3,2,4,2,3,1,2,3,4
Management und Technologie,3,2,2,3,1,3,3,3,2,1,2,2,2,1,4,3,4,1,3,2,2
Management und Technologie,1,3,1,4,3,3,5,2,3,1,1,2,2,2,2,3,5,3,3,6,3
Management und Technologie,1,2,1,1,1,3,4,1,3,3,2,2,2,2,5,3,2,3,3,4,1
Nachhaltigkeit,2,5,1,3,3,1,3,1,5,2,2,1,1,1,1,2,5,2,1,3,1
Staatswissenschaften,6,2,5,6,2,6,-1,6,1,6,5,3,5,-1,6,2,5,5,6,1,6
Management und Technologie,3,2,1,4,3,3,5,2,2,5,1,2,4,3,4,3,4,1,2,4,3
Nachhaltigkeit,1,4,1,4,4,3,3,3,3,3,1,2,3,1,3,-1,-1,-1,1,4,4
Nachhaltigkeit,2,1,3,2,4,1,5,2,2,2,2,3,1,2,3,4,3,3,2,3,3
Management und Technologie,3,2,1,5,5,3,5,1,4,3,2,1,4,3,5,6,6,1,2,6,2
Management und Technologie,2,2,6,4,5,2,4,5,5,4,5,5,2,4,2,6,4,5,4,1,5
Bildung,3,2,1,1,1,3,2,1,1,3,1,1,1,1,3,3,2,1,1,6,2
Bildung,2,5,1,4,3,5,3,1,2,4,4,2,5,3,6,3,3,1,3,2,5
Bildung,3,3,1,4,3,3,6,2,5,4,3,2,4,5,2,4,4,2,2,5,2
Bildung,4,2,6,1,5,3,1,6,3,2,5,6,2,5,2,3,2,6,6,1,3
Kulturwissenschaften,2,5,1,4,3,1,3,1,3,2,2,1,2,3,2,1,3,1,1,2,1
Bildung,3,2,6,1,1,1,2,1,1,2,2,1,1,1,6,1,1,1,1,1,1
Kulturwissenschaften,1,4,1,3,2,2,5,1,6,4,3,1,3,2,2,5,4,1,1,3,2
Management und Technologie,3,2,1,2,1,1,3,1,1,3,1,1,2,2,3,1,3,1,2,2,3
Nachhaltigkeit,2,3,1,3,4,2,5,1,4,3,2,2,2,3,1,5,3,2,1,5,1
Nachhaltigkeit,1,5,1,4,3,2,5,2,4,2,2,2,5,3,2,5,3,1,1,5,2
Nachhaltigkeit,2,3,2,3,4,1,5,3,6,2,2,2,3,3,2,3,4,1,2,5,1
Bildung,3,4,1,2,1,2,5,2,4,1,1,2,1,3,2,2,2,4,2,6,2
Management und Technologie,1,2,2,5,2,3,6,4,6,1,2,4,4,1,1,4,4,4,2,4,1
Bildung,3,4,1,3,2,4,4,3,4,4,3,4,4,2,3,3,4,2,2,4,3
Management und Technologie,4,4,1,4,2,2,4,1,2,2,3,2,2,1,1,5,5,2,1,3,2
Management und Technologie,3,2,2,2,1,2,6,2,4,1,2,1,1,4,2,1,3,3,3,5,2
Management und Technologie,2,1,3,4,3,3,4,2,2,4,1,3,2,2,2,5,2,1,3,5,5
Kulturwissenschaften,1,5,1,3,4,2,6,2,4,3,1,2,3,3,3,4,4,4,2,5,2
Management und Technologie,3,2,2,3,3,2,5,2,3,1,3,2,3,-1,3,4,3,1,3,4,2
Kulturwissenschaften,2,5,1,3,5,2,5,2,3,3,2,2,2,4,3,3,2,2,3,5,1
Bildung,2,4,2,5,1,3,6,1,1,1,2,1,2,2,2,3,5,1,2,2,3
Management und Technologie,1,3,1,1,1,2,5,2,5,1,1,1,1,1,1,3,3,1,1,5,1
Management und Technologie,3,5,1,4,3,4,5,1,2,4,5,1,6,4,3,2,3,1,1,2,1
Bildung,3,6,1,3,1,4,4,1,3,5,3,1,3,2,3,5,4,2,3,4,2
Kulturwissenschaften,1,2,2,5,1,1,5,1,2,5,1,1,4,-1,1,3,5,2,1,5,4
Kulturwissenschaften,3,2,1,3,4,1,5,2,5,1,1,1,2,1,3,5,4,1,2,3,1
Staatswissenschaften,4,2,1,2,2,2,5,1,3,4,1,2,3,2,1,5,3,3,3,5,2
Nachhaltigkeit,1,3,4,6,6,2,3,6,3,2,5,2,5,4,2,5,4,4,6,1,3
Nachhaltigkeit,1,4,1,6,3,1,4,1,5,2,1,2,5,2,3,5,4,3,3,4,2
Staatswissenschaften,1,3,1,1,2,3,4,1,4,1,1,1,1,1,1,4,4,1,1,4,1
Bildung,2,3,3,3,1,4,2,3,2,5,4,2,2,1,3,2,3,2,2,2,3
Management und Technologie,1,2,1,1,3,4,5,2,5,3,1,2,1,5,2,5,1,1,3,2,2
Nachhaltigkeit,3,5,1,3,3,2,6,3,2,4,1,3,4,4,2,4,5,1,1,6,5
Nachhaltigkeit,2,6,1,3,4,2,5,2,3,3,1,2,4,2,1,5,5,3,1,5,3
Nachhaltigkeit,2,6,1,2,2,2,4,3,3,2,3,2,4,5,2,2,3,1,1,4,2
Management und Technologie,1,1,1,1,2,1,1,1,1,1,1,1,1,2,1,1,1,2,1,1,1
Management und Technologie,2,2,1,3,3,2,4,2,3,2,1,2,2,3,1,3,4,2,2,2,2
Management und Technologie,3,6,1,3,4,1,4,1,2,1,4,1,2,3,3,3,3,3,2,5,1
Bildung,3,4,1,4,2,4,3,2,2,3,2,2,4,1,4,1,4,2,1,1,2
Kulturwissenschaften,3,6,1,4,4,2,5,1,3,4,6,2,4,1,5,5,4,1,1,4,4
Management und Technologie,2,5,2,2,4,3,4,2,2,2,2,1,2,5,4,3,4,1,3,6,4
Management und Technologie,5,6,6,3,6,6,2,5,6,4,4,5,6,6,4,5,4,6,4,6,6
Kulturwissenschaften,1,5,2,4,2,3,6,3,4,2,2,3,5,6,3,5,3,3,1,6,2
Management und Technologie,2,1,2,3,2,3,3,2,4,1,3,2,2,3,2,4,2,3,4,4,2
Kulturwissenschaften,2,3,1,2,3,2,4,2,3,3,1,2,2,3,2,3,3,1,1,4,3
Kulturwissenschaften,1,5,1,3,2,3,4,2,4,2,3,1,2,3,5,2,3,2,2,2,2
Kulturwissenschaften,1,5,1,1,4,3,5,2,3,5,1,2,2,1,3,3,4,1,1,4,5
Staatswissenschaften,3,4,1,2,2,4,6,4,5,4,1,2,3,5,3,2,3,2,1,6,3
Staatswissenschaften,3,3,2,3,1,1,5,1,3,2,1,1,1,1,3,3,4,1,2,2,1
Kulturwissenschaften,1,2,2,1,1,1,4,1,6,1,1,1,1,1,1,2,3,3,1,4,2
Kulturwissenschaften,3,3,1,2,2,4,4,2,2,2,1,2,2,1,4,2,3,1,1,2,2
Bildung,2,5,1,4,2,3,5,1,2,2,2,2,3,1,3,4,5,1,2,3,2
Staatswissenschaften,2,1,1,2,1,2,2,2,4,2,2,1,1,1,1,2,2,1,2,2,2
Management und Technologie,2,5,2,3,4,1,4,1,5,3,1,1,3,4,3,5,5,1,2,4,2
Kulturwissenschaften,2,4,1,1,1,1,1,1,3,1,1,1,1,1,2,1,2,1,1,1,1
Kulturwissenschaften,2,4,1,1,1,1,-1,1,2,1,1,1,1,1,2,5,1,1,1,-1,1
Nachhaltigkeit,2,4,4,3,4,3,5,3,4,2,2,1,1,2,1,3,4,2,1,2,3
Management und Technologie,3,5,1,4,3,3,3,2,4,3,2,2,4,2,1,3,5,1,2,5,1
Nachhaltigkeit,1,4,1,2,2,2,5,1,2,4,2,1,2,4,3,4,2,2,1,6,2
Kulturwissenschaften,2,5,1,2,4,3,6,2,4,2,2,1,4,5,3,2,5,2,1,6,2
Management und Technologie,1,2,1,1,1,2,3,1,1,1,1,2,1,1,3,3,3,1,1,1,1
Staatswissenschaften,3,1,1,1,1,4,5,2,5,1,1,1,1,1,4,3,4,2,2,6,1
Kulturwissenschaften,1,6,1,3,6,1,6,2,4,2,1,1,2,4,1,-1,4,1,2,6,1
Nachhaltigkeit,3,5,1,3,6,1,5,2,3,1,2,2,3,4,1,4,3,2,1,5,1
Staatswissenschaften,4,4,1,3,3,5,5,2,2,2,1,1,2,1,4,2,5,1,1,6,2
Staatswissenschaften,2,5,1,2,3,1,5,2,3,3,1,1,2,1,2,2,2,2,2,3,3
Staatswissenschaften,2,6,1,3,4,1,6,2,4,5,1,2,4,3,3,1,4,1,1,4,1
Staatswissenschaften,5,3,3,5,4,4,2,4,2,3,3,3,3,1,4,3,5,2,3,2,4
Staatswissenschaften,1,5,2,2,3,3,6,1,1,2,2,1,2,1,3,2,4,3,3,5,1
Management und Technologie,2,1,1,4,1,5,5,3,3,2,1,1,1,1,3,3,1,1,5,4,3
Nachhaltigkeit,3,5,2,3,2,2,4,2,4,3,3,2,3,4,3,3,4,2,2,5,3
Nachhaltigkeit,4,5,1,5,3,4,4,2,3,4,2,2,5,2,3,2,4,2,3,4,3
Nachhaltigkeit,2,6,1,3,4,1,5,3,4,5,2,1,4,5,2,4,4,2,2,5,3
Staatswissenschaften,1,3,1,4,2,1,5,1,2,1,1,3,2,1,1,2,5,5,1,3,2
Nachhaltigkeit,2,5,1,5,2,4,5,1,1,1,2,1,5,2,1,5,6,1,1,4,2
Nachhaltigkeit,2,6,1,4,2,1,-1,1,5,3,1,1,4,2,1,2,4,1,1,4,2
Staatswissenschaften,2,3,1,3,4,2,3,1,3,2,1,1,2,4,2,2,2,1,1,3,4
Staatswissenschaften,2,3,1,2,3,1,5,2,6,3,1,2,2,2,3,3,3,3,2,6,1
Staatswissenschaften,3,4,4,4,2,4,3,2,3,4,1,3,2,3,5,4,4,2,2,2,2
Nachhaltigkeit,3,5,4,2,4,1,2,4,2,6,5,5,3,5,5,2,4,6,5,1,6
Bildung,1,5,1,5,1,4,3,1,1,5,4,1,5,1,6,1,4,1,1,1,6
Nachhaltigkeit,1,6,1,5,4,2,1,1,5,2,1,1,3,1,1,1,6,1,1,1,2
Management und Technologie,2,1,1,2,4,2,5,3,3,3,2,3,2,4,3,3,3,1,3,4,2
Bildung,1,4,1,2,2,2,4,1,3,4,1,1,2,3,2,5,4,1,1,3,2
Kulturwissenschaften,1,5,1,2,4,1,5,3,6,2,1,2,2,-1,-1,5,2,2,4,6,1
Staatswissenschaften,2,5,2,3,5,1,5,2,2,2,2,3,4,3,2,4,3,2,2,3,3
